%!PS-Adobe-3.0
%%Creator: PCBNEW
%%CreationDate: Sun Mar  5 13:27:14 2017
%%Title: /home/maly/Projekty/Projekty_GIT/szafka/Elektronika/szafka-Dwgs.User.ps
%%Pages: 1
%%PageOrder: Ascend
%%BoundingBox: 0 0 596 842
%%DocumentMedia: A4 595 842 0 () ()
%%Orientation: Landscape
%%EndComments
%%BeginProlog
/line { newpath moveto lineto stroke } bind def
/cir0 { newpath 0 360 arc stroke } bind def
/cir1 { newpath 0 360 arc gsave fill grestore stroke } bind def
/cir2 { newpath 0 360 arc gsave fill grestore stroke } bind def
/arc0 { newpath arc stroke } bind def
/arc1 { newpath 4 index 4 index moveto arc closepath gsave fill
    grestore stroke } bind def
/arc2 { newpath 4 index 4 index moveto arc closepath gsave fill
    grestore stroke } bind def
/poly0 { stroke } bind def
/poly1 { closepath gsave fill grestore stroke } bind def
/poly2 { closepath gsave fill grestore stroke } bind def
/rect0 { rectstroke } bind def
/rect1 { rectfill } bind def
/rect2 { rectfill } bind def
/linemode0 { 0 setlinecap 0 setlinejoin 0 setlinewidth } bind def
/linemode1 { 1 setlinecap 1 setlinejoin } bind def
/dashedline { [200] 100 setdash } bind def
/solidline { [] 0 setdash } bind def
/phantomshow { moveto
    /KicadFont findfont 0.000001 scalefont setfont
    show } bind def
/textshow { gsave
    findfont exch scalefont setfont concat 1 scale 0 0 moveto show
    } bind def
/reencodefont {
  findfont dup length dict begin
  { 1 index /FID ne
    { def }
    { pop pop } ifelse
  } forall
  /Encoding ISOLatin1Encoding def
  currentdict
  end } bind def
/KicadFont /Helvetica reencodefont definefont pop
/KicadFont-Bold /Helvetica-Bold reencodefont definefont pop
/KicadFont-Oblique /Helvetica-Oblique reencodefont definefont pop
/KicadFont-BoldOblique /Helvetica-BoldOblique reencodefont definefont pop
%%EndProlog
%%Page: 1 1
%%BeginPageSetup
gsave
0.0072 0.0072 scale
linemode1
82680 0 translate 90 rotate
39.3701 setlinewidth
%%EndPageSetup
0 0 0 setrgbcolor
0 0 0 setrgbcolor
0 0 0 setrgbcolor
118.11 setlinewidth
newpath
45209 50705.9 moveto
45209 50340.3 lineto
45433.9 50537.1 lineto
45433.9 50452.8 lineto
45462.1 50396.5 lineto
45490.2 50368.4 lineto
45546.4 50340.3 lineto
45687 50340.3 lineto
45743.3 50368.4 lineto
45771.4 50396.5 lineto
45799.5 50452.8 lineto
45799.5 50621.5 lineto
45771.4 50677.8 lineto
45743.3 50705.9 lineto
stroke
newpath
45209 49806 moveto
45209 50087.2 lineto
45490.2 50115.3 lineto
45462.1 50087.2 lineto
45433.9 50031 lineto
45433.9 49890.3 lineto
45462.1 49834.1 lineto
45490.2 49806 lineto
45546.4 49777.9 lineto
45687 49777.9 lineto
45743.3 49806 lineto
45771.4 49834.1 lineto
45799.5 49890.3 lineto
45799.5 50031 lineto
45771.4 50087.2 lineto
45743.3 50115.3 lineto
stroke
newpath
45771.4 49496.6 moveto
45799.5 49496.6 lineto
45855.8 49524.8 lineto
45883.9 49552.9 lineto
stroke
newpath
45209 49131.1 moveto
45209 49074.8 lineto
45237.1 49018.6 lineto
45265.2 48990.5 lineto
45321.5 48962.3 lineto
45433.9 48934.2 lineto
45574.5 48934.2 lineto
45687 48962.3 lineto
45743.3 48990.5 lineto
45771.4 49018.6 lineto
45799.5 49074.8 lineto
45799.5 49131.1 lineto
45771.4 49187.3 lineto
45743.3 49215.4 lineto
45687 49243.6 lineto
45574.5 49271.7 lineto
45433.9 49271.7 lineto
45321.5 49243.6 lineto
45265.2 49215.4 lineto
45237.1 49187.3 lineto
45209 49131.1 lineto
stroke
newpath
45209 48568.6 moveto
45209 48512.4 lineto
45237.1 48456.2 lineto
45265.2 48428 lineto
45321.5 48399.9 lineto
45433.9 48371.8 lineto
45574.5 48371.8 lineto
45687 48399.9 lineto
45743.3 48428 lineto
45771.4 48456.2 lineto
45799.5 48512.4 lineto
45799.5 48568.6 lineto
45771.4 48624.9 lineto
45743.3 48653 lineto
45687 48681.1 lineto
45574.5 48709.2 lineto
45433.9 48709.2 lineto
45321.5 48681.1 lineto
45265.2 48653 lineto
45237.1 48624.9 lineto
45209 48568.6 lineto
stroke
newpath
45209 48006.2 moveto
45209 47950 lineto
45237.1 47893.7 lineto
45265.2 47865.6 lineto
45321.5 47837.5 lineto
45433.9 47809.4 lineto
45574.5 47809.4 lineto
45687 47837.5 lineto
45743.3 47865.6 lineto
45771.4 47893.7 lineto
45799.5 47950 lineto
45799.5 48006.2 lineto
45771.4 48062.5 lineto
45743.3 48090.6 lineto
45687 48118.7 lineto
45574.5 48146.8 lineto
45433.9 48146.8 lineto
45321.5 48118.7 lineto
45265.2 48090.6 lineto
45237.1 48062.5 lineto
45209 48006.2 lineto
stroke
newpath
45799.5 47106.3 moveto
45405.8 47106.3 lineto
stroke
newpath
45462.1 47106.3 moveto
45433.9 47078.2 lineto
45405.8 47022 lineto
45405.8 46937.6 lineto
45433.9 46881.4 lineto
45490.2 46853.2 lineto
45799.5 46853.2 lineto
stroke
newpath
45490.2 46853.2 moveto
45433.9 46825.1 lineto
45405.8 46768.9 lineto
45405.8 46684.5 lineto
45433.9 46628.3 lineto
45490.2 46600.1 lineto
45799.5 46600.1 lineto
stroke
newpath
45799.5 46318.9 moveto
45405.8 46318.9 lineto
stroke
newpath
45462.1 46318.9 moveto
45433.9 46290.8 lineto
45405.8 46234.6 lineto
45405.8 46150.2 lineto
45433.9 46093.9 lineto
45490.2 46065.8 lineto
45799.5 46065.8 lineto
stroke
newpath
45490.2 46065.8 moveto
45433.9 46037.7 lineto
45405.8 45981.5 lineto
45405.8 45897.1 lineto
45433.9 45840.9 lineto
45490.2 45812.7 lineto
45799.5 45812.7 lineto
stroke
0 0 0 setrgbcolor
newpath
46063.9 55120.9 moveto
46063.9 41341.4 lineto
stroke
0 0 0 setrgbcolor
newpath
49607.2 55120.9 moveto
45000.9 55120.9 lineto
stroke
0 0 0 setrgbcolor
newpath
49607.2 41341.4 moveto
45000.9 41341.4 lineto
stroke
0 0 0 setrgbcolor
newpath
46063.9 41341.4 moveto
46294.7 41784.9 lineto
stroke
0 0 0 setrgbcolor
newpath
46063.9 41341.4 moveto
45833 41784.9 lineto
stroke
0 0 0 setrgbcolor
newpath
46063.9 55120.9 moveto
46294.7 54677.4 lineto
stroke
0 0 0 setrgbcolor
newpath
46063.9 55120.9 moveto
45833 54677.4 lineto
stroke
0 0 0 setrgbcolor
0 0 0 setrgbcolor
newpath
62768 58731.7 moveto
63049.2 58731.7 lineto
63077.4 58450.5 lineto
63049.2 58478.7 lineto
62993 58506.8 lineto
62852.4 58506.8 lineto
62796.1 58478.7 lineto
62768 58450.5 lineto
62739.9 58394.3 lineto
62739.9 58253.7 lineto
62768 58197.4 lineto
62796.1 58169.3 lineto
62852.4 58141.2 lineto
62993 58141.2 lineto
63049.2 58169.3 lineto
63077.4 58197.4 lineto
stroke
newpath
62233.7 58731.7 moveto
62346.2 58731.7 lineto
62402.4 58703.6 lineto
62430.6 58675.5 lineto
62486.8 58591.1 lineto
62514.9 58478.7 lineto
62514.9 58253.7 lineto
62486.8 58197.4 lineto
62458.7 58169.3 lineto
62402.4 58141.2 lineto
62290 58141.2 lineto
62233.7 58169.3 lineto
62205.6 58197.4 lineto
62177.5 58253.7 lineto
62177.5 58394.3 lineto
62205.6 58450.5 lineto
62233.7 58478.7 lineto
62290 58506.8 lineto
62402.4 58506.8 lineto
62458.7 58478.7 lineto
62486.8 58450.5 lineto
62514.9 58394.3 lineto
stroke
newpath
61896.3 58169.3 moveto
61896.3 58141.2 lineto
61924.4 58084.9 lineto
61952.5 58056.8 lineto
stroke
newpath
61530.7 58731.7 moveto
61474.4 58731.7 lineto
61418.2 58703.6 lineto
61390.1 58675.5 lineto
61361.9 58619.3 lineto
61333.8 58506.8 lineto
61333.8 58366.2 lineto
61361.9 58253.7 lineto
61390.1 58197.4 lineto
61418.2 58169.3 lineto
61474.4 58141.2 lineto
61530.7 58141.2 lineto
61586.9 58169.3 lineto
61615 58197.4 lineto
61643.2 58253.7 lineto
61671.3 58366.2 lineto
61671.3 58506.8 lineto
61643.2 58619.3 lineto
61615 58675.5 lineto
61586.9 58703.6 lineto
61530.7 58731.7 lineto
stroke
newpath
60968.2 58731.7 moveto
60912 58731.7 lineto
60855.8 58703.6 lineto
60827.6 58675.5 lineto
60799.5 58619.3 lineto
60771.4 58506.8 lineto
60771.4 58366.2 lineto
60799.5 58253.7 lineto
60827.6 58197.4 lineto
60855.8 58169.3 lineto
60912 58141.2 lineto
60968.2 58141.2 lineto
61024.5 58169.3 lineto
61052.6 58197.4 lineto
61080.7 58253.7 lineto
61108.9 58366.2 lineto
61108.9 58506.8 lineto
61080.7 58619.3 lineto
61052.6 58675.5 lineto
61024.5 58703.6 lineto
60968.2 58731.7 lineto
stroke
newpath
60405.8 58731.7 moveto
60349.6 58731.7 lineto
60293.3 58703.6 lineto
60265.2 58675.5 lineto
60237.1 58619.3 lineto
60209 58506.8 lineto
60209 58366.2 lineto
60237.1 58253.7 lineto
60265.2 58197.4 lineto
60293.3 58169.3 lineto
60349.6 58141.2 lineto
60405.8 58141.2 lineto
60462.1 58169.3 lineto
60490.2 58197.4 lineto
60518.3 58253.7 lineto
60546.4 58366.2 lineto
60546.4 58506.8 lineto
60518.3 58619.3 lineto
60490.2 58675.5 lineto
60462.1 58703.6 lineto
60405.8 58731.7 lineto
stroke
newpath
59505.9 58141.2 moveto
59505.9 58534.9 lineto
stroke
newpath
59505.9 58478.7 moveto
59477.8 58506.8 lineto
59421.6 58534.9 lineto
59337.2 58534.9 lineto
59281 58506.8 lineto
59252.8 58450.5 lineto
59252.8 58141.2 lineto
stroke
newpath
59252.8 58450.5 moveto
59224.7 58506.8 lineto
59168.5 58534.9 lineto
59084.1 58534.9 lineto
59027.9 58506.8 lineto
58999.7 58450.5 lineto
58999.7 58141.2 lineto
stroke
newpath
58718.5 58141.2 moveto
58718.5 58534.9 lineto
stroke
newpath
58718.5 58478.7 moveto
58690.4 58506.8 lineto
58634.2 58534.9 lineto
58549.8 58534.9 lineto
58493.6 58506.8 lineto
58465.4 58450.5 lineto
58465.4 58141.2 lineto
stroke
newpath
58465.4 58450.5 moveto
58437.3 58506.8 lineto
58381.1 58534.9 lineto
58296.7 58534.9 lineto
58240.5 58506.8 lineto
58212.3 58450.5 lineto
58212.3 58141.2 lineto
stroke
0 0 0 setrgbcolor
newpath
71654.4 57876.9 moveto
49607.2 57876.9 lineto
stroke
0 0 0 setrgbcolor
newpath
71654.4 55120.9 moveto
71654.4 58939.8 lineto
stroke
0 0 0 setrgbcolor
newpath
49607.2 55120.9 moveto
49607.2 58939.8 lineto
stroke
0 0 0 setrgbcolor
newpath
49607.2 57876.9 moveto
50050.7 57646 lineto
stroke
0 0 0 setrgbcolor
newpath
49607.2 57876.9 moveto
50050.7 58107.7 lineto
stroke
0 0 0 setrgbcolor
newpath
71654.4 57876.9 moveto
71210.9 57646 lineto
stroke
0 0 0 setrgbcolor
newpath
71654.4 57876.9 moveto
71210.9 58107.7 lineto
stroke
showpage
grestore
%%EOF
