%!PS-Adobe-3.0
%%Creator: PCBNEW
%%CreationDate: Sun Mar  5 13:27:14 2017
%%Title: /home/maly/Projekty/Projekty_GIT/szafka/Elektronika/szafka-F.Cu.ps
%%Pages: 1
%%PageOrder: Ascend
%%BoundingBox: 0 0 596 842
%%DocumentMedia: A4 595 842 0 () ()
%%Orientation: Landscape
%%EndComments
%%BeginProlog
/line { newpath moveto lineto stroke } bind def
/cir0 { newpath 0 360 arc stroke } bind def
/cir1 { newpath 0 360 arc gsave fill grestore stroke } bind def
/cir2 { newpath 0 360 arc gsave fill grestore stroke } bind def
/arc0 { newpath arc stroke } bind def
/arc1 { newpath 4 index 4 index moveto arc closepath gsave fill
    grestore stroke } bind def
/arc2 { newpath 4 index 4 index moveto arc closepath gsave fill
    grestore stroke } bind def
/poly0 { stroke } bind def
/poly1 { closepath gsave fill grestore stroke } bind def
/poly2 { closepath gsave fill grestore stroke } bind def
/rect0 { rectstroke } bind def
/rect1 { rectfill } bind def
/rect2 { rectfill } bind def
/linemode0 { 0 setlinecap 0 setlinejoin 0 setlinewidth } bind def
/linemode1 { 1 setlinecap 1 setlinejoin } bind def
/dashedline { [200] 100 setdash } bind def
/solidline { [] 0 setdash } bind def
/phantomshow { moveto
    /KicadFont findfont 0.000001 scalefont setfont
    show } bind def
/textshow { gsave
    findfont exch scalefont setfont concat 1 scale 0 0 moveto show
    } bind def
/reencodefont {
  findfont dup length dict begin
  { 1 index /FID ne
    { def }
    { pop pop } ifelse
  } forall
  /Encoding ISOLatin1Encoding def
  currentdict
  end } bind def
/KicadFont /Helvetica reencodefont definefont pop
/KicadFont-Bold /Helvetica-Bold reencodefont definefont pop
/KicadFont-Oblique /Helvetica-Oblique reencodefont definefont pop
/KicadFont-BoldOblique /Helvetica-BoldOblique reencodefont definefont pop
%%EndProlog
%%Page: 1 1
%%BeginPageSetup
gsave
0.0072 0.0072 scale
linemode1
82680 0 translate 90 rotate
39.3701 setlinewidth
%%EndPageSetup
0 0 0 setrgbcolor
0 0 0 setrgbcolor
147.638 setlinewidth
newpath
70529.6 42649.1 moveto
70529.6 43239.6 lineto
70332.7 42817.8 lineto
70135.8 43239.6 lineto
70135.8 42649.1 lineto
stroke
newpath
69601.5 42649.1 moveto
69601.5 42958.4 lineto
69629.7 43014.6 lineto
69685.9 43042.8 lineto
69798.4 43042.8 lineto
69854.6 43014.6 lineto
stroke
newpath
69601.5 42677.2 moveto
69657.8 42649.1 lineto
69798.4 42649.1 lineto
69854.6 42677.2 lineto
69882.8 42733.4 lineto
69882.8 42789.7 lineto
69854.6 42845.9 lineto
69798.4 42874 lineto
69657.8 42874 lineto
69601.5 42902.2 lineto
stroke
newpath
69320.3 42649.1 moveto
69320.3 43042.8 lineto
stroke
newpath
69320.3 42930.3 moveto
69292.2 42986.5 lineto
69264.1 43014.6 lineto
69207.8 43042.8 lineto
69151.6 43042.8 lineto
stroke
newpath
68701.7 42677.2 moveto
68757.9 42649.1 lineto
68870.4 42649.1 lineto
68926.6 42677.2 lineto
68954.7 42705.3 lineto
68982.9 42761.6 lineto
68982.9 42930.3 lineto
68954.7 42986.5 lineto
68926.6 43014.6 lineto
68870.4 43042.8 lineto
68757.9 43042.8 lineto
68701.7 43014.6 lineto
stroke
newpath
68448.6 42649.1 moveto
68448.6 43042.8 lineto
stroke
newpath
68448.6 43239.6 moveto
68476.7 43211.5 lineto
68448.6 43183.4 lineto
68420.4 43211.5 lineto
68448.6 43239.6 lineto
68448.6 43183.4 lineto
stroke
newpath
68167.3 43042.8 moveto
68167.3 42649.1 lineto
stroke
newpath
68167.3 42986.5 moveto
68139.2 43014.6 lineto
68083 43042.8 lineto
67998.6 43042.8 lineto
67942.4 43014.6 lineto
67914.3 42958.4 lineto
67914.3 42649.1 lineto
stroke
newpath
67239.3 43239.6 moveto
67098.7 42649.1 lineto
66986.2 43070.9 lineto
66873.8 42649.1 lineto
66733.1 43239.6 lineto
stroke
newpath
66283.2 42677.2 moveto
66339.4 42649.1 lineto
66451.9 42649.1 lineto
66508.2 42677.2 lineto
66536.3 42733.4 lineto
66536.3 42958.4 lineto
66508.2 43014.6 lineto
66451.9 43042.8 lineto
66339.4 43042.8 lineto
66283.2 43014.6 lineto
66255.1 42958.4 lineto
66255.1 42902.2 lineto
66536.3 42845.9 lineto
stroke
newpath
65748.9 43042.8 moveto
65748.9 42564.7 lineto
65777 42508.5 lineto
65805.1 42480.3 lineto
65861.4 42452.2 lineto
65945.7 42452.2 lineto
66002 42480.3 lineto
stroke
newpath
65748.9 42677.2 moveto
65805.1 42649.1 lineto
65917.6 42649.1 lineto
65973.9 42677.2 lineto
66002 42705.3 lineto
66030.1 42761.6 lineto
66030.1 42930.3 lineto
66002 42986.5 lineto
65973.9 43014.6 lineto
65917.6 43042.8 lineto
65805.1 43042.8 lineto
65748.9 43014.6 lineto
stroke
newpath
65467.7 42649.1 moveto
65467.7 43042.8 lineto
stroke
newpath
65467.7 42930.3 moveto
65439.6 42986.5 lineto
65411.4 43014.6 lineto
65355.2 43042.8 lineto
65299 43042.8 lineto
stroke
newpath
65158.3 43042.8 moveto
64849 43042.8 lineto
65158.3 42649.1 lineto
64849 42649.1 lineto
stroke
newpath
64680.3 43042.8 moveto
64539.7 42649.1 lineto
stroke
newpath
64399.1 43042.8 moveto
64539.7 42649.1 lineto
64595.9 42508.5 lineto
64624 42480.3 lineto
64680.3 42452.2 lineto
stroke
newpath
64174.1 43042.8 moveto
64174.1 42649.1 lineto
stroke
newpath
64174.1 42986.5 moveto
64146 43014.6 lineto
64089.7 43042.8 lineto
64005.4 43042.8 lineto
63949.1 43014.6 lineto
63921 42958.4 lineto
63921 42649.1 lineto
stroke
0 0 0 setrgbcolor
newpath
70557.7 43858.3 moveto
70473.3 43830.2 lineto
70332.7 43830.2 lineto
70276.5 43858.3 lineto
70248.3 43886.4 lineto
70220.2 43942.7 lineto
70220.2 43998.9 lineto
70248.3 44055.1 lineto
70276.5 44083.3 lineto
70332.7 44111.4 lineto
70445.2 44139.5 lineto
70501.4 44167.6 lineto
70529.6 44195.7 lineto
70557.7 44252 lineto
70557.7 44308.2 lineto
70529.6 44364.5 lineto
70501.4 44392.6 lineto
70445.2 44420.7 lineto
70304.6 44420.7 lineto
70220.2 44392.6 lineto
stroke
newpath
70023.4 44223.9 moveto
69714 44223.9 lineto
70023.4 43830.2 lineto
69714 43830.2 lineto
stroke
newpath
69236 43830.2 moveto
69236 44139.5 lineto
69264.1 44195.7 lineto
69320.3 44223.9 lineto
69432.8 44223.9 lineto
69489.1 44195.7 lineto
stroke
newpath
69236 43858.3 moveto
69292.2 43830.2 lineto
69432.8 43830.2 lineto
69489.1 43858.3 lineto
69517.2 43914.5 lineto
69517.2 43970.8 lineto
69489.1 44027 lineto
69432.8 44055.1 lineto
69292.2 44055.1 lineto
69236 44083.3 lineto
stroke
newpath
69039.1 44223.9 moveto
68814.1 44223.9 lineto
stroke
newpath
68954.7 43830.2 moveto
68954.7 44336.4 lineto
68926.6 44392.6 lineto
68870.4 44420.7 lineto
68814.1 44420.7 lineto
stroke
newpath
68617.3 43830.2 moveto
68617.3 44420.7 lineto
stroke
newpath
68561 44055.1 moveto
68392.3 43830.2 lineto
stroke
newpath
68392.3 44223.9 moveto
68617.3 43998.9 lineto
stroke
newpath
67886.1 43830.2 moveto
67886.1 44139.5 lineto
67914.3 44195.7 lineto
67970.5 44223.9 lineto
68083 44223.9 lineto
68139.2 44195.7 lineto
stroke
newpath
67886.1 43858.3 moveto
67942.4 43830.2 lineto
68083 43830.2 lineto
68139.2 43858.3 lineto
68167.3 43914.5 lineto
68167.3 43970.8 lineto
68139.2 44027 lineto
68083 44055.1 lineto
67942.4 44055.1 lineto
67886.1 44083.3 lineto
stroke
newpath
67211.2 44223.9 moveto
67070.6 43830.2 lineto
66930 44223.9 lineto
stroke
newpath
66705 43886.4 moveto
66676.9 43858.3 lineto
66705 43830.2 lineto
66733.1 43858.3 lineto
66705 43886.4 lineto
66705 43830.2 lineto
stroke
newpath
65664.5 43830.2 moveto
66002 43830.2 lineto
stroke
newpath
65833.3 43830.2 moveto
65833.3 44420.7 lineto
65889.5 44336.4 lineto
65945.7 44280.1 lineto
66002 44252 lineto
stroke
newpath
65411.4 43886.4 moveto
65383.3 43858.3 lineto
65411.4 43830.2 lineto
65439.6 43858.3 lineto
65411.4 43886.4 lineto
65411.4 43830.2 lineto
stroke
newpath
65017.7 44420.7 moveto
64961.5 44420.7 lineto
64905.3 44392.6 lineto
64877.1 44364.5 lineto
64849 44308.2 lineto
64820.9 44195.7 lineto
64820.9 44055.1 lineto
64849 43942.7 lineto
64877.1 43886.4 lineto
64905.3 43858.3 lineto
64961.5 43830.2 lineto
65017.7 43830.2 lineto
65074 43858.3 lineto
65102.1 43886.4 lineto
65130.2 43942.7 lineto
65158.3 44055.1 lineto
65158.3 44195.7 lineto
65130.2 44308.2 lineto
65102.1 44364.5 lineto
65074 44392.6 lineto
65017.7 44420.7 lineto
stroke
0 0 0 setrgbcolor
0 setlinewidth
newpath
58076.1 53067.4 moveto
57583.9 53067.4 lineto
57583.9 52476.9 lineto
58076.1 52476.9 lineto
58076.1 53067.4 lineto
poly1
0 0 0 setrgbcolor
newpath
58076.1 52083.1 moveto
57583.9 52083.1 lineto
57583.9 51492.6 lineto
58076.1 51492.6 lineto
58076.1 52083.1 lineto
poly1
0 0 0 setrgbcolor
newpath
53842.6 51926.1 moveto
53842.6 51433.9 lineto
54433.1 51433.9 lineto
54433.1 51926.1 lineto
53842.6 51926.1 lineto
poly1
0 0 0 setrgbcolor
newpath
54826.9 51926.1 moveto
54826.9 51433.9 lineto
55417.4 51433.9 lineto
55417.4 51926.1 lineto
54826.9 51926.1 lineto
poly1
0 0 0 setrgbcolor
newpath
62817.4 50533.9 moveto
62817.4 51026.1 lineto
62226.9 51026.1 lineto
62226.9 50533.9 lineto
62817.4 50533.9 lineto
poly1
0 0 0 setrgbcolor
newpath
61833.1 50533.9 moveto
61833.1 51026.1 lineto
61242.6 51026.1 lineto
61242.6 50533.9 lineto
61833.1 50533.9 lineto
poly1
0 0 0 setrgbcolor
newpath
54961.5 47237.1 moveto
54961.5 47729.2 lineto
54370.9 47729.2 lineto
54370.9 47237.1 lineto
54961.5 47237.1 lineto
poly1
0 0 0 setrgbcolor
newpath
53977.2 47237.1 moveto
53977.2 47729.2 lineto
53386.7 47729.2 lineto
53386.7 47237.1 lineto
53977.2 47237.1 lineto
poly1
0 0 0 setrgbcolor
newpath
62462.8 45149.2 moveto
62810.8 45497.2 lineto
62393.2 45914.8 lineto
62045.2 45566.8 lineto
62462.8 45149.2 lineto
poly1
0 0 0 setrgbcolor
newpath
61766.8 45845.2 moveto
62114.8 46193.2 lineto
61697.2 46610.8 lineto
61349.2 46262.8 lineto
61766.8 45845.2 lineto
poly1
0 0 0 setrgbcolor
newpath
60430 49980 moveto
60430 50780 lineto
59630 50780 lineto
59630 49980 lineto
60430 49980 lineto
poly1
0 0 0 setrgbcolor
800 setlinewidth
newpath
60030 49380 moveto
60030 49380 lineto
stroke
0 0 0 setrgbcolor
0 setlinewidth
newpath
57270 43080 moveto
56590 43080 lineto
56590 42280 lineto
57270 42280 lineto
57270 43080 lineto
poly1
0 0 0 setrgbcolor
680 setlinewidth
newpath
57930 42740 moveto
57930 42620 lineto
stroke
0 0 0 setrgbcolor
newpath
58930 42740 moveto
58930 42620 lineto
stroke
0 0 0 setrgbcolor
newpath
59930 42740 moveto
59930 42620 lineto
stroke
0 0 0 setrgbcolor
newpath
60930 42740 moveto
60930 42620 lineto
stroke
0 0 0 setrgbcolor
newpath
61930 42740 moveto
61930 42620 lineto
stroke
0 0 0 setrgbcolor
newpath
62930 42740 moveto
62930 42620 lineto
stroke
0 0 0 setrgbcolor
0 setlinewidth
newpath
61580 52780 moveto
61580 53580 lineto
60780 53580 lineto
60780 52780 lineto
61580 52780 lineto
poly1
0 0 0 setrgbcolor
800 setlinewidth
newpath
61180 52180 moveto
61180 52180 lineto
stroke
0 0 0 setrgbcolor
0 setlinewidth
newpath
55815 50155 moveto
56495 50155 lineto
56495 50955 lineto
55815 50955 lineto
55815 50155 lineto
poly1
0 0 0 setrgbcolor
680 setlinewidth
newpath
55155 50495 moveto
55155 50615 lineto
stroke
0 0 0 setrgbcolor
newpath
54155 50495 moveto
54155 50615 lineto
stroke
0 0 0 setrgbcolor
0 setlinewidth
newpath
55130 43480 moveto
55130 44280 lineto
54330 44280 lineto
54330 43480 lineto
55130 43480 lineto
poly1
0 0 0 setrgbcolor
800 setlinewidth
newpath
54730 42880 moveto
54730 42880 lineto
stroke
0 0 0 setrgbcolor
0 setlinewidth
newpath
67730 47380 moveto
67730 46580 lineto
68530 46580 lineto
68530 47380 lineto
67730 47380 lineto
poly1
0 0 0 setrgbcolor
800 setlinewidth
newpath
68130 47980 moveto
68130 47980 lineto
stroke
0 0 0 setrgbcolor
0 setlinewidth
newpath
65830 48580 moveto
65030 48580 lineto
65030 47780 lineto
65830 47780 lineto
65830 48580 lineto
poly1
0 0 0 setrgbcolor
800 setlinewidth
newpath
66430 48180 moveto
66430 48180 lineto
stroke
0 0 0 setrgbcolor
0 setlinewidth
newpath
65678.5 45848.5 moveto
65993.5 45848.5 lineto
65993.5 46163.5 lineto
65678.5 46163.5 lineto
65678.5 45848.5 lineto
poly1
0 0 0 setrgbcolor
newpath
65678.5 46596.5 moveto
65993.5 46596.5 lineto
65993.5 46911.5 lineto
65678.5 46911.5 lineto
65678.5 46596.5 lineto
poly1
0 0 0 setrgbcolor
newpath
66465.5 46222.5 moveto
66780.5 46222.5 lineto
66780.5 46537.5 lineto
66465.5 46537.5 lineto
66465.5 46222.5 lineto
poly1
0 0 0 setrgbcolor
newpath
61378.5 48148.5 moveto
61693.5 48148.5 lineto
61693.5 48463.5 lineto
61378.5 48463.5 lineto
61378.5 48148.5 lineto
poly1
0 0 0 setrgbcolor
newpath
61378.5 48896.5 moveto
61693.5 48896.5 lineto
61693.5 49211.5 lineto
61378.5 49211.5 lineto
61378.5 48896.5 lineto
poly1
0 0 0 setrgbcolor
newpath
62165.5 48522.5 moveto
62480.5 48522.5 lineto
62480.5 48837.5 lineto
62165.5 48837.5 lineto
62165.5 48522.5 lineto
poly1
0 0 0 setrgbcolor
newpath
58474.1 49353.2 moveto
58985.9 49353.2 lineto
58985.9 49943.8 lineto
58474.1 49943.8 lineto
58474.1 49353.2 lineto
poly1
0 0 0 setrgbcolor
newpath
58474.1 50416.2 moveto
58985.9 50416.2 lineto
58985.9 51006.8 lineto
58474.1 51006.8 lineto
58474.1 50416.2 lineto
poly1
0 0 0 setrgbcolor
newpath
61226.3 48045.6 moveto
60864.4 47683.7 lineto
61282 47266.1 lineto
61643.9 47628 lineto
61226.3 48045.6 lineto
poly1
0 0 0 setrgbcolor
newpath
61978 47293.9 moveto
61616.1 46932 lineto
62033.7 46514.4 lineto
62395.6 46876.3 lineto
61978 47293.9 lineto
poly1
0 0 0 setrgbcolor
newpath
51274.1 49453.2 moveto
51785.9 49453.2 lineto
51785.9 50043.8 lineto
51274.1 50043.8 lineto
51274.1 49453.2 lineto
poly1
0 0 0 setrgbcolor
newpath
51274.1 50516.2 moveto
51785.9 50516.2 lineto
51785.9 51106.8 lineto
51274.1 51106.8 lineto
51274.1 50516.2 lineto
poly1
0 0 0 setrgbcolor
newpath
52274.1 49453.2 moveto
52785.9 49453.2 lineto
52785.9 50043.8 lineto
52274.1 50043.8 lineto
52274.1 49453.2 lineto
poly1
0 0 0 setrgbcolor
newpath
52274.1 50516.2 moveto
52785.9 50516.2 lineto
52785.9 51106.8 lineto
52274.1 51106.8 lineto
52274.1 50516.2 lineto
poly1
0 0 0 setrgbcolor
newpath
64574.1 45553.2 moveto
65085.9 45553.2 lineto
65085.9 46143.8 lineto
64574.1 46143.8 lineto
64574.1 45553.2 lineto
poly1
0 0 0 setrgbcolor
newpath
64574.1 46616.2 moveto
65085.9 46616.2 lineto
65085.9 47206.8 lineto
64574.1 47206.8 lineto
64574.1 46616.2 lineto
poly1
0 0 0 setrgbcolor
newpath
62803.2 48235.9 moveto
62803.2 47724.1 lineto
63393.8 47724.1 lineto
63393.8 48235.9 lineto
62803.2 48235.9 lineto
poly1
0 0 0 setrgbcolor
newpath
63866.2 48235.9 moveto
63866.2 47724.1 lineto
64456.8 47724.1 lineto
64456.8 48235.9 lineto
63866.2 48235.9 lineto
poly1
0 0 0 setrgbcolor
newpath
58876.9 48743 moveto
58876.9 48920.2 lineto
58306 48920.2 lineto
58306 48743 lineto
58876.9 48743 lineto
poly1
0 0 0 setrgbcolor
newpath
58876.9 48487.1 moveto
58876.9 48664.3 lineto
58306 48664.3 lineto
58306 48487.1 lineto
58876.9 48487.1 lineto
poly1
0 0 0 setrgbcolor
newpath
58876.9 48231.2 moveto
58876.9 48408.3 lineto
58306 48408.3 lineto
58306 48231.2 lineto
58876.9 48231.2 lineto
poly1
0 0 0 setrgbcolor
newpath
58876.9 47975.3 moveto
58876.9 48152.4 lineto
58306 48152.4 lineto
58306 47975.3 lineto
58876.9 47975.3 lineto
poly1
0 0 0 setrgbcolor
newpath
58876.9 47719.4 moveto
58876.9 47896.5 lineto
58306 47896.5 lineto
58306 47719.4 lineto
58876.9 47719.4 lineto
poly1
0 0 0 setrgbcolor
newpath
58876.9 47463.5 moveto
58876.9 47640.6 lineto
58306 47640.6 lineto
58306 47463.5 lineto
58876.9 47463.5 lineto
poly1
0 0 0 setrgbcolor
newpath
58876.9 47207.6 moveto
58876.9 47384.7 lineto
58306 47384.7 lineto
58306 47207.6 lineto
58876.9 47207.6 lineto
poly1
0 0 0 setrgbcolor
newpath
58876.9 46951.7 moveto
58876.9 47128.8 lineto
58306 47128.8 lineto
58306 46951.7 lineto
58876.9 46951.7 lineto
poly1
0 0 0 setrgbcolor
newpath
58876.9 46695.7 moveto
58876.9 46872.9 lineto
58306 46872.9 lineto
58306 46695.7 lineto
58876.9 46695.7 lineto
poly1
0 0 0 setrgbcolor
newpath
58876.9 46439.8 moveto
58876.9 46617 lineto
58306 46617 lineto
58306 46439.8 lineto
58876.9 46439.8 lineto
poly1
0 0 0 setrgbcolor
newpath
56554 46439.8 moveto
56554 46617 lineto
55983.1 46617 lineto
55983.1 46439.8 lineto
56554 46439.8 lineto
poly1
0 0 0 setrgbcolor
newpath
56554 46695.7 moveto
56554 46872.9 lineto
55983.1 46872.9 lineto
55983.1 46695.7 lineto
56554 46695.7 lineto
poly1
0 0 0 setrgbcolor
newpath
56554 46951.7 moveto
56554 47128.8 lineto
55983.1 47128.8 lineto
55983.1 46951.7 lineto
56554 46951.7 lineto
poly1
0 0 0 setrgbcolor
newpath
56554 47207.6 moveto
56554 47384.7 lineto
55983.1 47384.7 lineto
55983.1 47207.6 lineto
56554 47207.6 lineto
poly1
0 0 0 setrgbcolor
newpath
56554 47463.5 moveto
56554 47640.6 lineto
55983.1 47640.6 lineto
55983.1 47463.5 lineto
56554 47463.5 lineto
poly1
0 0 0 setrgbcolor
newpath
56554 47719.4 moveto
56554 47896.5 lineto
55983.1 47896.5 lineto
55983.1 47719.4 lineto
56554 47719.4 lineto
poly1
0 0 0 setrgbcolor
newpath
56554 47975.3 moveto
56554 48152.4 lineto
55983.1 48152.4 lineto
55983.1 47975.3 lineto
56554 47975.3 lineto
poly1
0 0 0 setrgbcolor
newpath
56554 48231.2 moveto
56554 48408.3 lineto
55983.1 48408.3 lineto
55983.1 48231.2 lineto
56554 48231.2 lineto
poly1
0 0 0 setrgbcolor
newpath
56554 48487.1 moveto
56554 48664.3 lineto
55983.1 48664.3 lineto
55983.1 48487.1 lineto
56554 48487.1 lineto
poly1
0 0 0 setrgbcolor
newpath
56554 48743 moveto
56554 48920.2 lineto
55983.1 48920.2 lineto
55983.1 48743 lineto
56554 48743 lineto
poly1
0 0 0 setrgbcolor
newpath
50561.9 47048.1 moveto
50561.9 46811.9 lineto
51172.1 46811.9 lineto
51172.1 47048.1 lineto
50561.9 47048.1 lineto
poly1
0 0 0 setrgbcolor
newpath
50561.9 47548.1 moveto
50561.9 47311.9 lineto
51172.1 47311.9 lineto
51172.1 47548.1 lineto
50561.9 47548.1 lineto
poly1
0 0 0 setrgbcolor
newpath
50561.9 48048.1 moveto
50561.9 47811.9 lineto
51172.1 47811.9 lineto
51172.1 48048.1 lineto
50561.9 48048.1 lineto
poly1
0 0 0 setrgbcolor
newpath
50561.9 48548.1 moveto
50561.9 48311.9 lineto
51172.1 48311.9 lineto
51172.1 48548.1 lineto
50561.9 48548.1 lineto
poly1
0 0 0 setrgbcolor
newpath
52687.9 48548.1 moveto
52687.9 48311.9 lineto
53298.1 48311.9 lineto
53298.1 48548.1 lineto
52687.9 48548.1 lineto
poly1
0 0 0 setrgbcolor
newpath
52687.9 48048.1 moveto
52687.9 47811.9 lineto
53298.1 47811.9 lineto
53298.1 48048.1 lineto
52687.9 48048.1 lineto
poly1
0 0 0 setrgbcolor
newpath
52687.9 47548.1 moveto
52687.9 47311.9 lineto
53298.1 47311.9 lineto
53298.1 47548.1 lineto
52687.9 47548.1 lineto
poly1
0 0 0 setrgbcolor
newpath
52687.9 47048.1 moveto
52687.9 46811.9 lineto
53298.1 46811.9 lineto
53298.1 47048.1 lineto
52687.9 47048.1 lineto
poly1
0 0 0 setrgbcolor
newpath
69984.5 46938 moveto
69275.5 46938 lineto
69275.5 45560 lineto
69984.5 45560 lineto
69984.5 46938 lineto
poly1
0 0 0 setrgbcolor
newpath
69984.5 49300 moveto
69275.5 49300 lineto
69275.5 47922 lineto
69984.5 47922 lineto
69984.5 49300 lineto
poly1
0 0 0 setrgbcolor
newpath
65438 49325.5 moveto
65438 50034.5 lineto
64060 50034.5 lineto
64060 49325.5 lineto
65438 49325.5 lineto
poly1
0 0 0 setrgbcolor
newpath
67800 49325.5 moveto
67800 50034.5 lineto
66422 50034.5 lineto
66422 49325.5 lineto
67800 49325.5 lineto
poly1
0 0 0 setrgbcolor
669 setlinewidth
newpath
62736.9 53152.4 moveto
63445.9 53152.4 lineto
stroke
0 0 0 setrgbcolor
newpath
62736.9 52152.4 moveto
63445.9 52152.4 lineto
stroke
0 0 0 setrgbcolor
newpath
62736.9 54152.4 moveto
63445.9 54152.4 lineto
stroke
0 0 0 setrgbcolor
0 setlinewidth
50680 51230 275.591 cir1
39.3701 setlinewidth
0 0 0 setrgbcolor
0 setlinewidth
52830 45180 275.591 cir1
39.3701 setlinewidth
0 0 0 setrgbcolor
0 setlinewidth
57930 50680 275.591 cir1
39.3701 setlinewidth
0 0 0 setrgbcolor
0 setlinewidth
62630 46430 275.591 cir1
39.3701 setlinewidth
0 0 0 setrgbcolor
0 setlinewidth
56300.1 52168.2 275.591 cir1
39.3701 setlinewidth
0 0 0 setrgbcolor
0 setlinewidth
56300.1 53349.3 275.591 cir1
39.3701 setlinewidth
0 0 0 setrgbcolor
0 setlinewidth
50689.8 52069.8 275.591 cir1
39.3701 setlinewidth
0 0 0 setrgbcolor
0 setlinewidth
63977.2 48821.7 275.591 cir1
39.3701 setlinewidth
0 0 0 setrgbcolor
0 setlinewidth
62993 49707.6 275.591 cir1
39.3701 setlinewidth
0 0 0 setrgbcolor
0 setlinewidth
63583.5 46223.3 275.591 cir1
39.3701 setlinewidth
0 0 0 setrgbcolor
0 setlinewidth
53859.1 45829.6 275.591 cir1
39.3701 setlinewidth
0 0 0 setrgbcolor
0 setlinewidth
50680 49680 275.591 cir1
39.3701 setlinewidth
0 0 0 setrgbcolor
0 setlinewidth
50680 50480 275.591 cir1
39.3701 setlinewidth
0 0 0 setrgbcolor
196.85 setlinewidth
newpath
59430 53680 moveto
59430 52680 lineto
stroke
0 0 0 setrgbcolor
newpath
59980 54230 moveto
59430 53680 lineto
stroke
0 0 0 setrgbcolor
newpath
63080 54230 moveto
59980 54230 lineto
stroke
0 0 0 setrgbcolor
157.48 setlinewidth
newpath
51530 50811.5 moveto
51198.5 50811.5 lineto
stroke
0 0 0 setrgbcolor
newpath
51198.5 50811.5 moveto
50680 51230 lineto
stroke
0 0 0 setrgbcolor
newpath
62005.8 46904.2 moveto
62005.8 46501.8 lineto
stroke
0 0 0 setrgbcolor
newpath
62005.8 46501.8 moveto
61732 46228 lineto
stroke
0 0 0 setrgbcolor
newpath
52861.5 45211.5 moveto
52861.5 46080 lineto
stroke
0 0 0 setrgbcolor
newpath
52830 45180 moveto
52861.5 45211.5 lineto
stroke
0 0 0 setrgbcolor
newpath
61682 46328 moveto
61928 46328 lineto
stroke
0 0 0 setrgbcolor
newpath
61928 46328 moveto
62630 46430 lineto
stroke
0 0 0 setrgbcolor
newpath
57961.5 50711.5 moveto
58730 50711.5 lineto
stroke
0 0 0 setrgbcolor
newpath
57930 50680 moveto
57961.5 50711.5 lineto
stroke
0 0 0 setrgbcolor
newpath
54137.9 51680 moveto
52730 51680 lineto
stroke
0 0 0 setrgbcolor
newpath
52530 51480 moveto
52530 50811.5 lineto
stroke
0 0 0 setrgbcolor
newpath
52730 51680 moveto
52530 51480 lineto
stroke
0 0 0 setrgbcolor
newpath
57830 52772.1 moveto
54722.1 52772.1 lineto
stroke
0 0 0 setrgbcolor
newpath
54137.9 52187.9 moveto
54137.9 51680 lineto
stroke
0 0 0 setrgbcolor
newpath
54722.1 52772.1 moveto
54137.9 52187.9 lineto
stroke
0 0 0 setrgbcolor
newpath
52861.5 46080 moveto
52861.5 46798.5 lineto
stroke
0 0 0 setrgbcolor
newpath
52861.5 46798.5 moveto
52993 46930 lineto
stroke
0 0 0 setrgbcolor
newpath
59430 52680 moveto
57922.1 52680 lineto
stroke
0 0 0 setrgbcolor
newpath
57922.1 52680 moveto
57830 52772.1 lineto
stroke
0 0 0 setrgbcolor
newpath
59430 52680 moveto
59430 52580 lineto
stroke
0 0 0 setrgbcolor
newpath
59430 52580 moveto
58730 51880 lineto
stroke
0 0 0 setrgbcolor
newpath
58730 51880 moveto
58730 50711.5 lineto
stroke
0 0 0 setrgbcolor
newpath
58591.4 47808 moveto
60202 47808 lineto
stroke
0 0 0 setrgbcolor
newpath
60202 47808 moveto
61682 46328 lineto
stroke
0 0 0 setrgbcolor
196.85 setlinewidth
newpath
54822.1 47480 moveto
54822.1 47372.1 lineto
stroke
0 0 0 setrgbcolor
newpath
54822.1 47372.1 moveto
54380 46930 lineto
stroke
0 0 0 setrgbcolor
newpath
54380 46930 moveto
52993 46930 lineto
stroke
0 0 0 setrgbcolor
157.48 setlinewidth
newpath
56268.6 47808 moveto
55150.1 47808 lineto
stroke
0 0 0 setrgbcolor
newpath
55150.1 47808 moveto
54822.1 47480 lineto
stroke
0 0 0 setrgbcolor
newpath
51530 50811.5 moveto
52530 50811.5 lineto
stroke
0 0 0 setrgbcolor
98.4252 setlinewidth
newpath
56268.6 47552 moveto
57294.2 47552 lineto
stroke
0 0 0 setrgbcolor
newpath
54730 42084.7 moveto
54730 42880 lineto
stroke
0 0 0 setrgbcolor
newpath
54961.5 41853.2 moveto
54730 42084.7 lineto
stroke
0 0 0 setrgbcolor
newpath
58229.2 41853.2 moveto
54961.5 41853.2 lineto
stroke
0 0 0 setrgbcolor
newpath
58426.1 42050.1 moveto
58229.2 41853.2 lineto
stroke
0 0 0 setrgbcolor
newpath
58426.1 45869 moveto
58426.1 42050.1 lineto
stroke
0 0 0 setrgbcolor
newpath
57953.6 46341.4 moveto
58426.1 45869 lineto
stroke
0 0 0 setrgbcolor
newpath
57953.6 46892.6 moveto
57953.6 46341.4 lineto
stroke
0 0 0 setrgbcolor
newpath
57294.2 47552 moveto
57953.6 46892.6 lineto
stroke
0 0 0 setrgbcolor
157.48 setlinewidth
newpath
55542.2 47552 moveto
54922.1 46932 lineto
stroke
0 0 0 setrgbcolor
newpath
55708 47552 moveto
55542.2 47552 lineto
stroke
0 0 0 setrgbcolor
98.4252 setlinewidth
newpath
51575.7 52069.8 moveto
50689.8 52069.8 lineto
stroke
0 0 0 setrgbcolor
newpath
55811.9 51680 moveto
56300.1 52168.2 lineto
stroke
0 0 0 setrgbcolor
newpath
56300.1 53349.3 moveto
56103.2 53546.1 lineto
stroke
0 0 0 setrgbcolor
newpath
56103.2 53546.1 moveto
53347.3 53546.1 lineto
stroke
0 0 0 setrgbcolor
newpath
53347.3 53546.1 moveto
51870.9 52069.8 lineto
stroke
0 0 0 setrgbcolor
newpath
51870.9 52069.8 moveto
51575.7 52069.8 lineto
stroke
0 0 0 setrgbcolor
newpath
55122.1 51680 moveto
55811.9 51680 lineto
stroke
0 0 0 setrgbcolor
newpath
61537.9 50780 moveto
61537.9 50220.9 lineto
stroke
0 0 0 setrgbcolor
newpath
64174.1 48624.9 moveto
64174.1 47992.6 lineto
stroke
0 0 0 setrgbcolor
newpath
63977.2 48821.7 moveto
64174.1 48624.9 lineto
stroke
0 0 0 setrgbcolor
newpath
62051.3 49707.6 moveto
62993 49707.6 lineto
stroke
0 0 0 setrgbcolor
newpath
61537.9 50220.9 moveto
62051.3 49707.6 lineto
stroke
0 0 0 setrgbcolor
newpath
64174.1 47992.6 moveto
64161.5 47980 lineto
stroke
0 0 0 setrgbcolor
newpath
56268.6 47552 moveto
57097.3 47552 lineto
stroke
0 0 0 setrgbcolor
newpath
57097.3 47552 moveto
57382.8 47837.5 lineto
stroke
0 0 0 setrgbcolor
newpath
56268.6 47552 moveto
56703.6 47552 lineto
stroke
0 0 0 setrgbcolor
newpath
56703.6 47552 moveto
56792.2 47640.6 lineto
stroke
0 0 0 setrgbcolor
newpath
58591.4 48831.6 moveto
58028.4 48831.6 lineto
stroke
0 0 0 setrgbcolor
newpath
58028.4 48831.6 moveto
57930 48930 lineto
stroke
0 0 0 setrgbcolor
157.48 setlinewidth
newpath
58591.4 48831.6 moveto
59031.6 48831.6 lineto
stroke
0 0 0 setrgbcolor
newpath
59031.6 48831.6 moveto
59055 48855 lineto
stroke
0 0 0 setrgbcolor
newpath
58591.4 48831.6 moveto
58203.4 48831.6 lineto
stroke
0 0 0 setrgbcolor
newpath
58203.4 48831.6 moveto
58180 48855 lineto
stroke
0 0 0 setrgbcolor
newpath
56268.6 47552 moveto
56727 47552 lineto
stroke
0 0 0 setrgbcolor
newpath
56730 47555 moveto
56755 47555 lineto
stroke
0 0 0 setrgbcolor
newpath
56727 47552 moveto
56730 47555 lineto
stroke
0 0 0 setrgbcolor
newpath
56268.6 47552 moveto
55708 47552 lineto
stroke
0 0 0 setrgbcolor
newpath
55708 47552 moveto
55705 47555 lineto
stroke
0 0 0 setrgbcolor
196.85 setlinewidth
newpath
61230 52230 moveto
61180 52180 lineto
stroke
0 0 0 setrgbcolor
newpath
63080 52230 moveto
61230 52230 lineto
stroke
0 0 0 setrgbcolor
newpath
62522.1 50780 moveto
63930 50780 lineto
stroke
0 0 0 setrgbcolor
newpath
63930 50780 moveto
63780 50780 lineto
stroke
0 0 0 setrgbcolor
newpath
67111 49680 moveto
67111 50349 lineto
stroke
0 0 0 setrgbcolor
newpath
63080 51480 moveto
63080 52230 lineto
stroke
0 0 0 setrgbcolor
newpath
63780 50780 moveto
63080 51480 lineto
stroke
0 0 0 setrgbcolor
newpath
66680 50780 moveto
63930 50780 lineto
stroke
0 0 0 setrgbcolor
newpath
67111 50349 moveto
66680 50780 lineto
stroke
0 0 0 setrgbcolor
157.48 setlinewidth
newpath
69630 48611 moveto
69461 48611 lineto
stroke
0 0 0 setrgbcolor
newpath
69461 48611 moveto
68830 47980 lineto
stroke
0 0 0 setrgbcolor
newpath
68830 47980 moveto
68130 47980 lineto
stroke
0 0 0 setrgbcolor
196.85 setlinewidth
newpath
67111 49680 moveto
67630 49680 lineto
stroke
0 0 0 setrgbcolor
newpath
67630 49680 moveto
68130 49180 lineto
stroke
0 0 0 setrgbcolor
newpath
68130 49180 moveto
68130 47980 lineto
stroke
0 0 0 setrgbcolor
newpath
68130 47980 moveto
66630 47980 lineto
stroke
0 0 0 setrgbcolor
newpath
66630 47980 moveto
66430 48180 lineto
stroke
0 0 0 setrgbcolor
newpath
66430 48180 moveto
66430 48999 lineto
stroke
0 0 0 setrgbcolor
newpath
66430 48999 moveto
67111 49680 lineto
stroke
0 0 0 setrgbcolor
157.48 setlinewidth
newpath
60030 49380 moveto
59630 49380 lineto
stroke
0 0 0 setrgbcolor
newpath
59630 49380 moveto
59361.5 49648.5 lineto
stroke
0 0 0 setrgbcolor
newpath
59361.5 49648.5 moveto
58730 49648.5 lineto
stroke
0 0 0 setrgbcolor
newpath
58591.4 48575.7 moveto
59725.7 48575.7 lineto
stroke
0 0 0 setrgbcolor
newpath
60030 48880 moveto
60030 49380 lineto
stroke
0 0 0 setrgbcolor
newpath
59725.7 48575.7 moveto
60030 48880 lineto
stroke
0 0 0 setrgbcolor
newpath
56268.6 46528.4 moveto
56028.4 46528.4 lineto
stroke
0 0 0 setrgbcolor
newpath
56028.4 46528.4 moveto
55930 46430 lineto
stroke
0 0 0 setrgbcolor
newpath
55930 46430 moveto
55930 44180 lineto
stroke
0 0 0 setrgbcolor
newpath
55930 44180 moveto
56930 43180 lineto
stroke
0 0 0 setrgbcolor
newpath
56930 43180 moveto
56930 42680 lineto
stroke
0 0 0 setrgbcolor
newpath
56268.6 46784.3 moveto
56825.7 46784.3 lineto
stroke
0 0 0 setrgbcolor
newpath
57930 45680 moveto
57930 42680 lineto
stroke
0 0 0 setrgbcolor
newpath
56825.7 46784.3 moveto
57930 45680 lineto
stroke
0 0 0 setrgbcolor
newpath
58591.4 46528.4 moveto
58831.6 46528.4 lineto
stroke
0 0 0 setrgbcolor
newpath
58831.6 46528.4 moveto
59180 46180 lineto
stroke
0 0 0 setrgbcolor
newpath
59180 46180 moveto
59180 43430 lineto
stroke
0 0 0 setrgbcolor
newpath
59180 43430 moveto
58930 43180 lineto
stroke
0 0 0 setrgbcolor
newpath
58930 43180 moveto
58930 42680 lineto
stroke
0 0 0 setrgbcolor
newpath
58591.4 46784.3 moveto
58991.6 46784.3 lineto
stroke
0 0 0 setrgbcolor
newpath
59930 45845.9 moveto
59930 42680 lineto
stroke
0 0 0 setrgbcolor
newpath
58991.6 46784.3 moveto
59930 45845.9 lineto
stroke
0 0 0 setrgbcolor
newpath
58591.4 47040.2 moveto
59069.8 47040.2 lineto
stroke
0 0 0 setrgbcolor
newpath
60930 45180 moveto
60930 42680 lineto
stroke
0 0 0 setrgbcolor
newpath
59069.8 47040.2 moveto
60930 45180 lineto
stroke
0 0 0 setrgbcolor
newpath
58591.4 47296.1 moveto
59313.9 47296.1 lineto
stroke
0 0 0 setrgbcolor
newpath
61930 44680 moveto
61930 42680 lineto
stroke
0 0 0 setrgbcolor
newpath
59313.9 47296.1 moveto
61930 44680 lineto
stroke
0 0 0 setrgbcolor
newpath
58591.4 47552 moveto
59558 47552 lineto
stroke
0 0 0 setrgbcolor
newpath
62930 44180 moveto
62930 42680 lineto
stroke
0 0 0 setrgbcolor
newpath
59558 47552 moveto
62930 44180 lineto
stroke
0 0 0 setrgbcolor
newpath
56268.6 48831.6 moveto
55853.4 48831.6 lineto
stroke
0 0 0 setrgbcolor
newpath
56155 50005 moveto
56155 50555 lineto
stroke
0 0 0 setrgbcolor
newpath
55755 49605 moveto
56155 50005 lineto
stroke
0 0 0 setrgbcolor
newpath
55755 48930 moveto
55755 49605 lineto
stroke
0 0 0 setrgbcolor
newpath
55853.4 48831.6 moveto
55755 48930 lineto
stroke
0 0 0 setrgbcolor
newpath
56268.6 48575.7 moveto
55284.3 48575.7 lineto
stroke
0 0 0 setrgbcolor
newpath
54155 49705 moveto
54155 50555 lineto
stroke
0 0 0 setrgbcolor
newpath
55284.3 48575.7 moveto
54155 49705 lineto
stroke
0 0 0 setrgbcolor
newpath
56268.6 47040.2 moveto
55890.2 47040.2 lineto
stroke
0 0 0 setrgbcolor
newpath
54730 45880 moveto
54730 43880 lineto
stroke
0 0 0 setrgbcolor
newpath
55890.2 47040.2 moveto
54730 45880 lineto
stroke
0 0 0 setrgbcolor
newpath
69630 46249 moveto
69411 46249 lineto
stroke
0 0 0 setrgbcolor
newpath
69411 46249 moveto
68680 46980 lineto
stroke
0 0 0 setrgbcolor
newpath
68680 46980 moveto
68130 46980 lineto
stroke
0 0 0 setrgbcolor
196.85 setlinewidth
newpath
68130 46980 moveto
67630 46980 lineto
stroke
0 0 0 setrgbcolor
newpath
67030 46380 moveto
66623 46380 lineto
stroke
0 0 0 setrgbcolor
newpath
67630 46980 moveto
67030 46380 lineto
stroke
0 0 0 setrgbcolor
newpath
65430 48180 moveto
65430 48999 lineto
stroke
0 0 0 setrgbcolor
newpath
65430 48999 moveto
64749 49680 lineto
stroke
0 0 0 setrgbcolor
newpath
62323 48680 moveto
62930 48680 lineto
stroke
0 0 0 setrgbcolor
newpath
63930 49680 moveto
64749 49680 lineto
stroke
0 0 0 setrgbcolor
newpath
62930 48680 moveto
63930 49680 lineto
stroke
0 0 0 setrgbcolor
157.48 setlinewidth
newpath
56268.6 47296.1 moveto
55798.1 47296.1 lineto
stroke
0 0 0 setrgbcolor
newpath
63958.3 45848.5 moveto
64830 45848.5 lineto
stroke
0 0 0 setrgbcolor
newpath
63583.5 46223.3 moveto
63958.3 45848.5 lineto
stroke
0 0 0 setrgbcolor
newpath
54331.6 45829.6 moveto
53859.1 45829.6 lineto
stroke
0 0 0 setrgbcolor
newpath
55798.1 47296.1 moveto
54331.6 45829.6 lineto
stroke
0 0 0 setrgbcolor
newpath
65836 46006 moveto
64987.5 46006 lineto
stroke
0 0 0 setrgbcolor
newpath
64987.5 46006 moveto
64830 45848.5 lineto
stroke
0 0 0 setrgbcolor
196.85 setlinewidth
newpath
63098.5 47980 moveto
61862 47980 lineto
stroke
0 0 0 setrgbcolor
newpath
61862 47980 moveto
61536 48306 lineto
stroke
0 0 0 setrgbcolor
157.48 setlinewidth
newpath
58591.4 48319.8 moveto
61522.2 48319.8 lineto
stroke
0 0 0 setrgbcolor
newpath
61522.2 48319.8 moveto
61536 48306 lineto
stroke
0 0 0 setrgbcolor
newpath
58591.4 48063.9 moveto
60846.1 48063.9 lineto
stroke
0 0 0 setrgbcolor
newpath
60846.1 48063.9 moveto
61254.2 47655.8 lineto
stroke
0 0 0 setrgbcolor
newpath
51530 49748.5 moveto
50748.5 49748.5 lineto
stroke
0 0 0 setrgbcolor
newpath
50748.5 49748.5 moveto
50680 49680 lineto
stroke
0 0 0 setrgbcolor
newpath
52993 47930 moveto
52680 47930 lineto
stroke
0 0 0 setrgbcolor
newpath
51530 49080 moveto
51530 49748.5 lineto
stroke
0 0 0 setrgbcolor
newpath
52680 47930 moveto
51530 49080 lineto
stroke
0 0 0 setrgbcolor
newpath
56268.6 48063.9 moveto
53813.9 48063.9 lineto
stroke
0 0 0 setrgbcolor
newpath
53680 47930 moveto
52993 47930 lineto
stroke
0 0 0 setrgbcolor
newpath
53813.9 48063.9 moveto
53680 47930 lineto
stroke
0 0 0 setrgbcolor
newpath
52530 49748.5 moveto
52530 49830 lineto
stroke
0 0 0 setrgbcolor
newpath
52530 49830 moveto
52080 50280 lineto
stroke
0 0 0 setrgbcolor
newpath
50830 50280 moveto
50680 50480 lineto
stroke
0 0 0 setrgbcolor
newpath
52080 50280 moveto
50830 50280 lineto
stroke
0 0 0 setrgbcolor
newpath
52993 48430 moveto
52780 48430 lineto
stroke
0 0 0 setrgbcolor
newpath
52780 48430 moveto
52530 48680 lineto
stroke
0 0 0 setrgbcolor
newpath
52530 48680 moveto
52530 49748.5 lineto
stroke
0 0 0 setrgbcolor
newpath
56268.6 48319.8 moveto
53790.2 48319.8 lineto
stroke
0 0 0 setrgbcolor
newpath
53680 48430 moveto
52993 48430 lineto
stroke
0 0 0 setrgbcolor
newpath
53790.2 48319.8 moveto
53680 48430 lineto
stroke
0 0 0 setrgbcolor
100 setlinewidth
newpath
49886.7 41620.9 moveto
71374.9 41620.9 lineto
71374.9 44982.2 lineto
70994 44982.2 lineto
70994 42179 lineto
63456.6 42179 lineto
63456.6 42353.8 lineto
63347.2 42190.1 lineto
63155.8 42062.2 lineto
62930 42017.3 lineto
62704.2 42062.2 lineto
62512.8 42190.1 lineto
62430 42314 lineto
62347.2 42190.1 lineto
62155.8 42062.2 lineto
61930 42017.3 lineto
61704.2 42062.2 lineto
61512.8 42190.1 lineto
61430 42314 lineto
61347.2 42190.1 lineto
61155.8 42062.2 lineto
60930 42017.3 lineto
60704.2 42062.2 lineto
60512.8 42190.1 lineto
60430 42314 lineto
60347.2 42190.1 lineto
60155.8 42062.2 lineto
59930 42017.3 lineto
59704.2 42062.2 lineto
59512.8 42190.1 lineto
59430 42314 lineto
59347.2 42190.1 lineto
59155.8 42062.2 lineto
58930 42017.3 lineto
58704.2 42062.2 lineto
58512.8 42190.1 lineto
58430 42314 lineto
58347.2 42190.1 lineto
58155.8 42062.2 lineto
57930 42017.3 lineto
57704.2 42062.2 lineto
57512.8 42190.1 lineto
57509 42195.7 lineto
57507.5 42187.4 lineto
57452.7 42102.3 lineto
57369.2 42045.2 lineto
57270 42025.1 lineto
56590 42025.1 lineto
56497.4 42042.5 lineto
56412.3 42097.3 lineto
56355.2 42180.8 lineto
56335.1 42280 lineto
56335.1 42729.2 lineto
55362.3 42729.2 lineto
55283.7 42539.5 lineto
55111.3 42353.5 lineto
54880.8 42247.7 lineto
54780 42294.4 lineto
54780 42830 lineto
54680 42830 lineto
54680 42294.4 lineto
54579.2 42247.7 lineto
54348.7 42353.5 lineto
54176.3 42539.5 lineto
54097.7 42729.2 lineto
54144.6 42830 lineto
54680 42830 lineto
54780 42830 lineto
55315.4 42830 lineto
55362.3 42729.2 lineto
56335.1 42729.2 lineto
56335.1 43080 lineto
56352.5 43172.6 lineto
56399.5 43245.6 lineto
55697.5 43947.5 lineto
55626.3 44054.2 lineto
55601.3 44180 lineto
55601.3 46286.4 lineto
55058.7 45743.8 lineto
55058.7 44534.9 lineto
55130 44534.9 lineto
55222.6 44517.5 lineto
55307.7 44462.7 lineto
55364.8 44379.2 lineto
55384.9 44280 lineto
55384.9 43480 lineto
55367.5 43387.4 lineto
55312.7 43302.3 lineto
55248.5 43258.4 lineto
55283.7 43220.5 lineto
55362.3 43030.8 lineto
55315.4 42930 lineto
54780 42930 lineto
54780 42937.9 lineto
54680 42937.9 lineto
54680 42930 lineto
54144.6 42930 lineto
54097.7 43030.8 lineto
54176.3 43220.5 lineto
54211.9 43258.9 lineto
54152.3 43297.3 lineto
54095.2 43380.8 lineto
54075.1 43480 lineto
54075.1 44280 lineto
54092.5 44372.6 lineto
54147.3 44457.7 lineto
54230.8 44514.8 lineto
54330 44534.9 lineto
54401.3 44534.9 lineto
54401.3 45514.7 lineto
54331.6 45500.9 lineto
54273.6 45500.9 lineto
54157.2 45384.3 lineto
53964.1 45304.1 lineto
53755 45303.9 lineto
53561.8 45383.8 lineto
53413.8 45531.5 lineto
53333.6 45724.6 lineto
53333.5 45933.7 lineto
53413.3 46126.9 lineto
53561 46274.9 lineto
53754.1 46355.1 lineto
53963.2 46355.3 lineto
54156.5 46275.4 lineto
54234.6 46197.5 lineto
55033.9 46996.9 lineto
54961.5 46982.2 lineto
54924.9 46982.2 lineto
54626.4 46683.6 lineto
54626.4 46683.6 lineto
54513.3 46608.1 lineto
54491.2 46603.7 lineto
54380 46581.6 lineto
54380 46581.6 lineto
53403.9 46581.6 lineto
53397.3 46577.1 lineto
53298.1 46557 lineto
53190.2 46557 lineto
53190.2 45563 lineto
53275.3 45478.1 lineto
53355.5 45285 lineto
53355.7 45075.9 lineto
53275.8 44882.7 lineto
53128.1 44734.7 lineto
52935 44654.5 lineto
52725.9 44654.3 lineto
52532.7 44734.2 lineto
52384.7 44881.9 lineto
52304.5 45075 lineto
52304.3 45284.1 lineto
52384.2 45477.3 lineto
52531.9 45625.3 lineto
52532.8 45625.7 lineto
52532.8 46614.6 lineto
52510.1 46629.2 lineto
52453.1 46712.7 lineto
52433 46811.9 lineto
52433 46817.5 lineto
51422.1 46817.5 lineto
51422.1 46762.2 lineto
51384.1 46670.3 lineto
51313.7 46599.9 lineto
51221.9 46561.9 lineto
50979.5 46561.9 lineto
50917 46624.4 lineto
50917 46880 lineto
50817 46880 lineto
50817 46624.4 lineto
50754.5 46561.9 lineto
50512.2 46561.9 lineto
50420.3 46599.9 lineto
50349.9 46670.3 lineto
50311.9 46762.2 lineto
50311.9 46817.5 lineto
50374.4 46880 lineto
50817 46880 lineto
50917 46880 lineto
51359.6 46880 lineto
51422.1 46817.5 lineto
52433 46817.5 lineto
52433 47048.1 lineto
52450.4 47140.8 lineto
52473.4 47176.4 lineto
52437.9 47262.2 lineto
52437.9 47317.5 lineto
51422.1 47317.5 lineto
51422.1 47262.2 lineto
51388.1 47180 lineto
51422.1 47097.8 lineto
51422.1 47042.5 lineto
51359.6 46980 lineto
50917 46980 lineto
50917 47380 lineto
50817 47380 lineto
50817 46980 lineto
50374.4 46980 lineto
50311.9 47042.5 lineto
50311.9 47097.8 lineto
50345.9 47180 lineto
50311.9 47262.2 lineto
50311.9 47317.5 lineto
50374.4 47380 lineto
50817 47380 lineto
50917 47380 lineto
51359.6 47380 lineto
51422.1 47317.5 lineto
52437.9 47317.5 lineto
52500.4 47380 lineto
52943 47380 lineto
52943 47372.1 lineto
53043 47372.1 lineto
53043 47380 lineto
53050.9 47380 lineto
53050.9 47480 lineto
53043 47480 lineto
53043 47487.9 lineto
52943 47487.9 lineto
52943 47480 lineto
52500.4 47480 lineto
52437.9 47542.5 lineto
52437.9 47597.8 lineto
52472.3 47681 lineto
52447.5 47697.5 lineto
52327.6 47817.5 lineto
51422.1 47817.5 lineto
51422.1 47762.2 lineto
51388.1 47680 lineto
51422.1 47597.8 lineto
51422.1 47542.5 lineto
51359.6 47480 lineto
50917 47480 lineto
50917 47880 lineto
50817 47880 lineto
50817 47480 lineto
50374.4 47480 lineto
50311.9 47542.5 lineto
50311.9 47597.8 lineto
50345.9 47680 lineto
50311.9 47762.2 lineto
50311.9 47817.5 lineto
50374.4 47880 lineto
50817 47880 lineto
50917 47880 lineto
51359.6 47880 lineto
51422.1 47817.5 lineto
52327.6 47817.5 lineto
51827.6 48317.5 lineto
51422.1 48317.5 lineto
51422.1 48262.2 lineto
51388.1 48180 lineto
51422.1 48097.8 lineto
51422.1 48042.5 lineto
51359.6 47980 lineto
50917 47980 lineto
50917 48380 lineto
50817 48380 lineto
50817 47980 lineto
50374.4 47980 lineto
50311.9 48042.5 lineto
50311.9 48097.8 lineto
50345.9 48180 lineto
50311.9 48262.2 lineto
50311.9 48317.5 lineto
50374.4 48380 lineto
50817 48380 lineto
50917 48380 lineto
51359.6 48380 lineto
51422.1 48317.5 lineto
51827.6 48317.5 lineto
51547.3 48597.8 lineto
51422.1 48597.8 lineto
51422.1 48542.5 lineto
51359.6 48480 lineto
50917 48480 lineto
50917 48735.6 lineto
50817 48735.6 lineto
50817 48480 lineto
50374.4 48480 lineto
50311.9 48542.5 lineto
50311.9 48597.8 lineto
50349.9 48689.7 lineto
50420.3 48760.1 lineto
50512.2 48798.1 lineto
50754.5 48798.1 lineto
50817 48735.6 lineto
50917 48735.6 lineto
50979.5 48798.1 lineto
51221.9 48798.1 lineto
51313.7 48760.1 lineto
51384.1 48689.7 lineto
51422.1 48597.8 lineto
51547.3 48597.8 lineto
51297.5 48847.5 lineto
51285.4 48865.7 lineto
51226.3 48954.2 lineto
51201.3 49080 lineto
51201.3 49212 lineto
51181.4 49215.8 lineto
51096.4 49270.5 lineto
51062.8 49319.6 lineto
50978.1 49234.7 lineto
50785 49154.5 lineto
50575.9 49154.3 lineto
50382.7 49234.2 lineto
50234.7 49381.9 lineto
50154.5 49575 lineto
50154.3 49784.1 lineto
50234.2 49977.3 lineto
50336.7 50080 lineto
50234.7 50181.9 lineto
50154.5 50375 lineto
50154.3 50584.1 lineto
50234.2 50777.3 lineto
50311.7 50855 lineto
50234.7 50931.9 lineto
50154.5 51125 lineto
50154.3 51334.1 lineto
50234.2 51527.3 lineto
50381.9 51675.3 lineto
50575 51755.5 lineto
50784.1 51755.7 lineto
50977.3 51675.8 lineto
51125.3 51528.1 lineto
51200.6 51346.8 lineto
51274.1 51361.7 lineto
51785.9 51361.7 lineto
51878.6 51344.2 lineto
51963.6 51289.5 lineto
52020.7 51205.9 lineto
52029.6 51162.1 lineto
52036.6 51199.4 lineto
52091.4 51284.5 lineto
52174.9 51341.6 lineto
52201.3 51346.9 lineto
52201.3 51480 lineto
52226.3 51605.8 lineto
52261.9 51659.1 lineto
52297.5 51712.5 lineto
52497.5 51912.5 lineto
52561.8 51955.4 lineto
52604.2 51983.7 lineto
52730 52008.7 lineto
53603.3 52008.7 lineto
53605.1 52018.7 lineto
53659.9 52103.8 lineto
53743.4 52160.9 lineto
53809.1 52174.2 lineto
53809.1 52187.9 lineto
53834.2 52313.7 lineto
53905.4 52420.3 lineto
54489.7 53004.6 lineto
54495.9 53008.7 lineto
54596.3 53075.8 lineto
54722.1 53100.9 lineto
57335.3 53100.9 lineto
57346.5 53160 lineto
57401.2 53245.1 lineto
57484.8 53302.2 lineto
57583.9 53322.3 lineto
58076.1 53322.3 lineto
58168.7 53304.9 lineto
58253.8 53250.1 lineto
58310.9 53166.6 lineto
58331 53067.4 lineto
58331 53008.7 lineto
59081.6 53008.7 lineto
59081.6 53680 lineto
59108.1 53813.3 lineto
59183.6 53926.4 lineto
59183.6 53926.4 lineto
59733.6 54476.4 lineto
59846.7 54551.9 lineto
59868.8 54556.3 lineto
59980 54578.4 lineto
59980 54578.4 lineto
62324.2 54578.4 lineto
62494.8 54692.4 lineto
62718.5 54736.9 lineto
63464.3 54736.9 lineto
63688 54692.4 lineto
63877.6 54565.7 lineto
64004.3 54376.1 lineto
64048.8 54152.4 lineto
64004.3 53928.8 lineto
63877.6 53739.1 lineto
63744.6 53650.3 lineto
63894.6 53530.4 lineto
64005.1 53329.9 lineto
64013.3 53292.9 lineto
63965.5 53202.4 lineto
63141.4 53202.4 lineto
63141.4 53210.3 lineto
63041.4 53210.3 lineto
63041.4 53202.4 lineto
62217.3 53202.4 lineto
62169.6 53292.9 lineto
62177.8 53329.9 lineto
62288.3 53530.4 lineto
62412.5 53629.7 lineto
61830 53629.7 lineto
61830 53292.5 lineto
61767.5 53230 lineto
61230 53230 lineto
61230 53767.5 lineto
61130 53767.5 lineto
61130 53230 lineto
60592.5 53230 lineto
60530 53292.5 lineto
60530 53629.7 lineto
60568.1 53721.6 lineto
60638.4 53791.9 lineto
60730.3 53830 lineto
61067.5 53830 lineto
61130 53767.5 lineto
61230 53767.5 lineto
61292.5 53830 lineto
61629.7 53830 lineto
61721.6 53791.9 lineto
61791.9 53721.6 lineto
61830 53629.7 lineto
62412.5 53629.7 lineto
62438.2 53650.3 lineto
62305.2 53739.1 lineto
62210 53881.6 lineto
60124.3 53881.6 lineto
59778.4 53535.7 lineto
59778.4 52680 lineto
59758.7 52581 lineto
59758.7 52580 lineto
59733.7 52454.2 lineto
59686.9 52384.2 lineto
59662.5 52347.5 lineto
59058.7 51743.8 lineto
59058.7 51248 lineto
59078.5 51244.2 lineto
59163.6 51189.5 lineto
59220.7 51105.9 lineto
59240.8 51006.8 lineto
59240.8 50416.2 lineto
59223.4 50323.6 lineto
59168.6 50238.5 lineto
59085.1 50181.4 lineto
59079.9 50180.4 lineto
59163.6 50126.5 lineto
59220.7 50042.9 lineto
59234 49977.2 lineto
59361.5 49977.2 lineto
59380 49973.6 lineto
59380 50267.5 lineto
59442.5 50330 lineto
59980 50330 lineto
59980 50322.1 lineto
60080 50322.1 lineto
60080 50330 lineto
60617.5 50330 lineto
60680 50267.5 lineto
60680 49930.3 lineto
60641.9 49838.4 lineto
60571.6 49768.1 lineto
60554.8 49761.1 lineto
60643.3 49628.7 lineto
60692.7 49380 lineto
60643.3 49131.3 lineto
60502.4 48920.4 lineto
60346 48815.9 lineto
60333.7 48754.2 lineto
60272.9 48663.2 lineto
60263.1 48648.5 lineto
61206.5 48648.5 lineto
61250.8 48678.8 lineto
61236.9 48684.6 lineto
61166.6 48754.9 lineto
61128.5 48846.8 lineto
61128.5 48941.5 lineto
61191 49004 lineto
61486 49004 lineto
61486 48996.1 lineto
61586 48996.1 lineto
61586 49004 lineto
61881 49004 lineto
61938.5 48946.5 lineto
61982.8 49015.2 lineto
62066.3 49072.3 lineto
62165.5 49092.4 lineto
62480.5 49092.4 lineto
62573.1 49075 lineto
62645.5 49028.4 lineto
62785.7 49028.4 lineto
63018.5 49261.2 lineto
61943.5 49261.2 lineto
61943.5 49166.5 lineto
61881 49104 lineto
61586 49104 lineto
61586 49399 lineto
61486 49399 lineto
61486 49104 lineto
61191 49104 lineto
61128.5 49166.5 lineto
61128.5 49261.2 lineto
61166.6 49353.1 lineto
61236.9 49423.5 lineto
61328.8 49461.5 lineto
61423.5 49461.5 lineto
61486 49399 lineto
61586 49399 lineto
61648.5 49461.5 lineto
61743.2 49461.5 lineto
61835.1 49423.5 lineto
61905.4 49353.1 lineto
61943.5 49261.2 lineto
63018.5 49261.2 lineto
63683.6 49926.4 lineto
63796.7 50001.9 lineto
63805.1 50003.6 lineto
63805.1 50034.5 lineto
63822.5 50127.1 lineto
63877.3 50212.2 lineto
63960.8 50269.3 lineto
64060 50289.4 lineto
65438 50289.4 lineto
65530.6 50272 lineto
65615.7 50217.2 lineto
65672.8 50133.7 lineto
65692.9 50034.5 lineto
65692.9 49325.5 lineto
65677.5 49243.7 lineto
65751.9 49132.3 lineto
65751.9 49132.3 lineto
65778.4 48999 lineto
65778.4 48999 lineto
65778.4 48834.9 lineto
65830 48834.9 lineto
65922.6 48817.5 lineto
66007.7 48762.7 lineto
66047.8 48704.1 lineto
66081.6 48726.7 lineto
66081.6 48999 lineto
66081.6 48999 lineto
66108.1 49132.3 lineto
66108.1 49132.3 lineto
66183.4 49245 lineto
66167.1 49325.5 lineto
66167.1 50034.5 lineto
66184.5 50127.1 lineto
66239.3 50212.2 lineto
66322.8 50269.3 lineto
66422 50289.4 lineto
66677.9 50289.4 lineto
66535.7 50431.6 lineto
63780 50431.6 lineto
63780 50431.6 lineto
63780 50431.6 lineto
63048.6 50431.6 lineto
63000.1 50356.2 lineto
62916.6 50299.1 lineto
62817.4 50279 lineto
62226.9 50279 lineto
62134.2 50296.5 lineto
62049.1 50351.2 lineto
62030.8 50378 lineto
61974.8 50322 lineto
61882.9 50283.9 lineto
61650.4 50283.9 lineto
61587.9 50346.4 lineto
61587.9 50730 lineto
61487.9 50730 lineto
61487.9 50346.4 lineto
61425.4 50283.9 lineto
61192.9 50283.9 lineto
61101 50322 lineto
61030.7 50392.3 lineto
60992.6 50484.2 lineto
60992.6 50667.5 lineto
61055.1 50730 lineto
61487.9 50730 lineto
61587.9 50730 lineto
61595.7 50730 lineto
61595.7 50829.7 lineto
60680 50829.7 lineto
60680 50492.5 lineto
60617.5 50430 lineto
60080 50430 lineto
60080 50967.5 lineto
59980 50967.5 lineto
59980 50430 lineto
59442.5 50430 lineto
59380 50492.5 lineto
59380 50829.7 lineto
59418.1 50921.6 lineto
59488.4 50991.9 lineto
59580.3 51030 lineto
59917.5 51030 lineto
59980 50967.5 lineto
60080 50967.5 lineto
60142.5 51030 lineto
60479.7 51030 lineto
60571.6 50991.9 lineto
60641.9 50921.6 lineto
60680 50829.7 lineto
61595.7 50829.7 lineto
61595.7 50830 lineto
61587.9 50830 lineto
61587.9 51213.6 lineto
61487.9 51213.6 lineto
61487.9 50830 lineto
61055.1 50830 lineto
60992.6 50892.5 lineto
60992.6 51075.8 lineto
61030.7 51167.7 lineto
61101 51238 lineto
61192.9 51276.1 lineto
61425.4 51276.1 lineto
61487.9 51213.6 lineto
61587.9 51213.6 lineto
61650.4 51276.1 lineto
61882.9 51276.1 lineto
61974.8 51238 lineto
62030.4 51182.4 lineto
62044.1 51203.8 lineto
62127.7 51260.9 lineto
62226.9 51281 lineto
62802 51281 lineto
62758.1 51346.7 lineto
62753.7 51368.8 lineto
62731.6 51480 lineto
62731.6 51480 lineto
62731.6 51567.9 lineto
62718.5 51567.9 lineto
62494.8 51612.4 lineto
62305.2 51739.1 lineto
62210 51881.6 lineto
61760.1 51881.6 lineto
61652.4 51720.4 lineto
61441.5 51579.5 lineto
61192.7 51530 lineto
61167.3 51530 lineto
60918.5 51579.5 lineto
60707.6 51720.4 lineto
60566.7 51931.3 lineto
60517.3 52180 lineto
60566.7 52428.7 lineto
60655.2 52561.1 lineto
60638.4 52568.1 lineto
60568.1 52638.4 lineto
60530 52730.3 lineto
60530 53067.5 lineto
60592.5 53130 lineto
61130 53130 lineto
61130 53122.1 lineto
61230 53122.1 lineto
61230 53130 lineto
61767.5 53130 lineto
61830 53067.5 lineto
61830 52730.3 lineto
61791.9 52638.4 lineto
61732 52578.4 lineto
62324.2 52578.4 lineto
62438.2 52654.6 lineto
62288.3 52774.5 lineto
62177.8 52975 lineto
62169.6 53012 lineto
62217.3 53102.4 lineto
63041.4 53102.4 lineto
63041.4 53094.6 lineto
63141.4 53094.6 lineto
63141.4 53102.4 lineto
63965.5 53102.4 lineto
64013.3 53012 lineto
64005.1 52975 lineto
63894.6 52774.5 lineto
63744.6 52654.6 lineto
63877.6 52565.7 lineto
64004.3 52376.1 lineto
64048.8 52152.4 lineto
64004.3 51928.8 lineto
63877.6 51739.1 lineto
63688 51612.4 lineto
63481.4 51571.3 lineto
63924.3 51128.4 lineto
66680 51128.4 lineto
66680 51128.4 lineto
66813.3 51101.9 lineto
66926.4 51026.4 lineto
66926.4 51026.4 lineto
67357.4 50595.4 lineto
67432.9 50482.3 lineto
67432.9 50482.3 lineto
67459.4 50349 lineto
67459.4 50349 lineto
67459.4 50289.4 lineto
67800 50289.4 lineto
67892.6 50272 lineto
67977.7 50217.2 lineto
68034.8 50133.7 lineto
68054.9 50034.5 lineto
68054.9 49747.8 lineto
68376.4 49426.4 lineto
68451.9 49313.3 lineto
68454.6 49300 lineto
68478.4 49180 lineto
68478.4 49180 lineto
68478.4 48522.4 lineto
68602.4 48439.6 lineto
68689.8 48308.7 lineto
68693.8 48308.7 lineto
69020.6 48635.5 lineto
69020.6 49300 lineto
69038 49392.6 lineto
69092.8 49477.7 lineto
69176.3 49534.8 lineto
69275.5 49554.9 lineto
69984.5 49554.9 lineto
70077.1 49537.5 lineto
70162.2 49482.7 lineto
70219.3 49399.2 lineto
70239.4 49300 lineto
70239.4 47922 lineto
70222 47829.4 lineto
70167.2 47744.3 lineto
70083.7 47687.2 lineto
69984.5 47667.1 lineto
69275.5 47667.1 lineto
69182.9 47684.5 lineto
69097.8 47739.3 lineto
69080.1 47765.2 lineto
69062.5 47747.5 lineto
68955.8 47676.3 lineto
68830 47651.3 lineto
68689.8 47651.3 lineto
68653.8 47597.4 lineto
68707.7 47562.7 lineto
68764.8 47479.2 lineto
68784.9 47380 lineto
68784.9 47287.9 lineto
68805.8 47283.7 lineto
68899 47221.5 lineto
68912.5 47212.5 lineto
69060.1 47064.9 lineto
69092.8 47115.7 lineto
69176.3 47172.8 lineto
69275.5 47192.9 lineto
69984.5 47192.9 lineto
70077.1 47175.5 lineto
70162.2 47120.7 lineto
70219.3 47037.2 lineto
70239.4 46938 lineto
70239.4 45560 lineto
70222 45467.4 lineto
70167.2 45382.3 lineto
70083.7 45325.2 lineto
69984.5 45305.1 lineto
69275.5 45305.1 lineto
69182.9 45322.5 lineto
69097.8 45377.3 lineto
69040.7 45460.8 lineto
69020.6 45560 lineto
69020.6 46174.5 lineto
68744.1 46451 lineto
68712.7 46402.3 lineto
68629.2 46345.2 lineto
68530 46325.1 lineto
67730 46325.1 lineto
67637.4 46342.5 lineto
67552.3 46397.3 lineto
67547.3 46404.6 lineto
67276.4 46133.6 lineto
67276.4 46133.6 lineto
67163.3 46058.1 lineto
67030 46031.6 lineto
66943.9 46031.6 lineto
66879.7 45987.7 lineto
66780.5 45967.6 lineto
66465.5 45967.6 lineto
66372.9 45985 lineto
66287.8 46039.8 lineto
66248.4 46097.4 lineto
66248.4 45848.5 lineto
66231 45755.8 lineto
66176.2 45670.8 lineto
66092.7 45613.7 lineto
65993.5 45593.6 lineto
65678.5 45593.6 lineto
65585.9 45611 lineto
65500.8 45665.8 lineto
65492.9 45677.2 lineto
65340.8 45677.2 lineto
65340.8 45553.2 lineto
65323.4 45460.6 lineto
65268.6 45375.5 lineto
65185.1 45318.4 lineto
65085.9 45298.3 lineto
64574.1 45298.3 lineto
64481.4 45315.8 lineto
64396.4 45370.5 lineto
64343.8 45447.5 lineto
63060.8 45447.5 lineto
63022.7 45355.6 lineto
62952.4 45285.3 lineto
62893.1 45226 lineto
62804.7 45226 lineto
62498.7 45532 lineto
62769.9 45803.2 lineto
62858.3 45803.2 lineto
63022.7 45638.8 lineto
63060.8 45546.9 lineto
63060.8 45447.5 lineto
64343.8 45447.5 lineto
64339.3 45454.1 lineto
64326 45519.8 lineto
63958.3 45519.8 lineto
63832.5 45544.8 lineto
63725.9 45616 lineto
63644.2 45697.8 lineto
63479.5 45697.6 lineto
63286.2 45777.5 lineto
63138.2 45925.2 lineto
63059.1 46115.9 lineto
62928.1 45984.7 lineto
62735 45904.5 lineto
62699.2 45904.5 lineto
62699.2 45873.9 lineto
62428 45602.7 lineto
62422.4 45608.3 lineto
62351.7 45537.6 lineto
62357.3 45532 lineto
62351.7 45526.4 lineto
62422.4 45455.7 lineto
62428 45461.3 lineto
62734 45155.3 lineto
62734 45066.9 lineto
62621 44953.9 lineto
63162.5 44412.5 lineto
63233.7 44305.8 lineto
63258.7 44180 lineto
63258.7 43229 lineto
63347.2 43169.9 lineto
63456.6 43006.2 lineto
63456.6 43801.1 lineto
64384.6 43801.1 lineto
64384.6 44982.2 lineto
70994 44982.2 lineto
71374.9 44982.2 lineto
71374.9 52954.8 lineto
70689.6 52954.8 lineto
70538 52587.9 lineto
70257.5 52306.9 lineto
69890.8 52154.6 lineto
69493.8 52154.3 lineto
69126.8 52305.9 lineto
68845.8 52586.4 lineto
68693.6 52953.1 lineto
68693.2 53350.1 lineto
68844.9 53717 lineto
69125.4 53998 lineto
69492 54150.3 lineto
69889.1 54150.6 lineto
70256 53999 lineto
70537 53718.5 lineto
70689.2 53351.8 lineto
70689.6 52954.8 lineto
71374.9 52954.8 lineto
71374.9 54841.4 lineto
49886.7 54841.4 lineto
49886.7 41620.9 lineto
poly1
newpath
54557.8 52142.9 moveto
54610.9 52108.8 lineto
54629.2 52082 lineto
54685.2 52138 lineto
54777.1 52176.1 lineto
55009.6 52176.1 lineto
55072.1 52113.6 lineto
55072.1 51730 lineto
55064.3 51730 lineto
55064.3 51630 lineto
55072.1 51630 lineto
55072.1 51246.4 lineto
55013.5 51187.8 lineto
55013.7 51187.8 lineto
55105 51140.1 lineto
55105 50605 lineto
55097.1 50605 lineto
55097.1 50505 lineto
55105 50505 lineto
55105 49969.9 lineto
55013.7 49922.2 lineto
55007.4 49923.2 lineto
54799.9 50023.2 lineto
54653.6 50186.9 lineto
54572.2 50065.1 lineto
54483.7 50006 lineto
54483.7 49841.2 lineto
55420.5 48904.4 lineto
55431.3 48904.4 lineto
55426.3 48930 lineto
55426.3 49605 lineto
55451.3 49730.8 lineto
55522.5 49837.5 lineto
55649.5 49964.4 lineto
55637.3 49972.3 lineto
55580.2 50055.8 lineto
55572.6 50093.2 lineto
55510.1 50023.2 lineto
55302.6 49923.2 lineto
55296.3 49922.2 lineto
55205 49969.9 lineto
55205 50505 lineto
55212.9 50505 lineto
55212.9 50605 lineto
55205 50605 lineto
55205 51140.1 lineto
55288.9 51183.9 lineto
55234.6 51183.9 lineto
55172.1 51246.4 lineto
55172.1 51630 lineto
55604.9 51630 lineto
55667.4 51567.5 lineto
55667.4 51384.2 lineto
55629.3 51292.3 lineto
55559 51222 lineto
55467.1 51183.9 lineto
55308.4 51183.9 lineto
55510.1 51086.8 lineto
55571.9 51017.7 lineto
55577.5 51047.6 lineto
55632.3 51132.7 lineto
55715.8 51189.8 lineto
55815 51209.9 lineto
56495 51209.9 lineto
56587.6 51192.5 lineto
56672.7 51137.7 lineto
56729.8 51054.2 lineto
56749.9 50955 lineto
56749.9 50155 lineto
56732.5 50062.4 lineto
56677.7 49977.3 lineto
56594.2 49920.2 lineto
56495 49900.1 lineto
56462.9 49900.1 lineto
56458.7 49879.2 lineto
56409.7 49805.8 lineto
56387.5 49772.5 lineto
56083.7 49468.8 lineto
56083.7 49175.1 lineto
56554 49175.1 lineto
56646.7 49157.6 lineto
56731.7 49102.9 lineto
56788.8 49019.3 lineto
56808.9 48920.2 lineto
56808.9 48743 lineto
56801.2 48702.2 lineto
56808.9 48664.3 lineto
56808.9 48487.1 lineto
56801.2 48446.3 lineto
56808.9 48408.3 lineto
56808.9 48231.2 lineto
56801.2 48190.4 lineto
56808.9 48152.4 lineto
56808.9 47975.3 lineto
56801.2 47934.5 lineto
56808.9 47896.5 lineto
56808.9 47719.4 lineto
56803.6 47691.3 lineto
56804 47690.4 lineto
56804 47658.8 lineto
56796 47650.8 lineto
56791.5 47626.7 lineto
56742.9 47551.2 lineto
56788.8 47483.9 lineto
56794.8 47454.5 lineto
56804 47445.3 lineto
56804 47413.7 lineto
56803.4 47412.2 lineto
56808.9 47384.7 lineto
56808.9 47207.6 lineto
56801.2 47166.7 lineto
56808.9 47128.8 lineto
56808.9 47113.1 lineto
56825.7 47113.1 lineto
56951.5 47088 lineto
57047.3 47024 lineto
57058.1 47016.8 lineto
58162.5 45912.5 lineto
58233.7 45805.8 lineto
58258.7 45680 lineto
58258.7 43229 lineto
58347.2 43169.9 lineto
58430 43046 lineto
58512.8 43169.9 lineto
58612.5 43236.5 lineto
58626.3 43305.8 lineto
58697.5 43412.5 lineto
58851.3 43566.2 lineto
58851.3 46043.8 lineto
58710.1 46184.9 lineto
58306 46184.9 lineto
58213.3 46202.4 lineto
58128.3 46257.1 lineto
58071.2 46340.7 lineto
58051.1 46439.8 lineto
58051.1 46617 lineto
58058.8 46657.8 lineto
58051.1 46695.7 lineto
58051.1 46872.9 lineto
58058.8 46913.7 lineto
58051.1 46951.7 lineto
58051.1 47128.8 lineto
58058.8 47169.6 lineto
58051.1 47207.6 lineto
58051.1 47384.7 lineto
58058.8 47425.5 lineto
58051.1 47463.5 lineto
58051.1 47640.6 lineto
58058.8 47681.4 lineto
58051.1 47719.4 lineto
58051.1 47896.5 lineto
58058.8 47937.4 lineto
58051.1 47975.3 lineto
58051.1 48152.4 lineto
58058.8 48193.3 lineto
58051.1 48231.2 lineto
58051.1 48408.3 lineto
58058.8 48449.2 lineto
58051.1 48487.1 lineto
58051.1 48664.3 lineto
58056.4 48692.3 lineto
58056 48693.3 lineto
58056 48724.8 lineto
58064 48732.8 lineto
58068.5 48756.9 lineto
58123.3 48842 lineto
58172.9 48875.9 lineto
58118.5 48875.9 lineto
58056 48938.4 lineto
58056 48969.9 lineto
58094 49061.8 lineto
58164.4 49132.1 lineto
58256.3 49170.2 lineto
58296.9 49170.2 lineto
58296.4 49170.5 lineto
58239.3 49254.1 lineto
58219.2 49353.2 lineto
58219.2 49943.8 lineto
58236.6 50036.4 lineto
58291.4 50121.5 lineto
58374.9 50178.6 lineto
58380.1 50179.6 lineto
58296.4 50233.5 lineto
58268.2 50274.8 lineto
58228.1 50234.7 lineto
58035 50154.5 lineto
57825.9 50154.3 lineto
57632.7 50234.2 lineto
57484.7 50381.9 lineto
57404.5 50575 lineto
57404.3 50784.1 lineto
57484.2 50977.3 lineto
57631.9 51125.3 lineto
57825 51205.5 lineto
58034.1 51205.7 lineto
58227.3 51125.8 lineto
58243.3 51109.9 lineto
58291.4 51184.5 lineto
58374.9 51241.6 lineto
58401.3 51246.9 lineto
58401.3 51675.4 lineto
58326.1 51675.4 lineto
58326.1 51442.9 lineto
58288 51351 lineto
58217.7 51280.7 lineto
58125.8 51242.6 lineto
57942.5 51242.6 lineto
57880 51305.1 lineto
57880 51737.9 lineto
57780 51737.9 lineto
57780 51305.1 lineto
57717.5 51242.6 lineto
57534.2 51242.6 lineto
57442.3 51280.7 lineto
57372 51351 lineto
57333.9 51442.9 lineto
57333.9 51675.4 lineto
57396.4 51737.9 lineto
57780 51737.9 lineto
57880 51737.9 lineto
58263.6 51737.9 lineto
58326.1 51675.4 lineto
58401.3 51675.4 lineto
58401.3 51880 lineto
58411 51928.8 lineto
58426.3 52005.8 lineto
58497.5 52112.5 lineto
58736.4 52351.3 lineto
58292.3 52351.3 lineto
58258.8 52299.1 lineto
58232 52280.8 lineto
58288 52224.8 lineto
58326.1 52132.9 lineto
58326.1 51900.4 lineto
58263.6 51837.9 lineto
57880 51837.9 lineto
57880 51845.7 lineto
57780 51845.7 lineto
57780 51837.9 lineto
57396.4 51837.9 lineto
57333.9 51900.4 lineto
57333.9 51975.8 lineto
55667.4 51975.8 lineto
55667.4 51792.5 lineto
55604.9 51730 lineto
55172.1 51730 lineto
55172.1 52113.6 lineto
55234.6 52176.1 lineto
55467.1 52176.1 lineto
55559 52138 lineto
55629.3 52067.7 lineto
55667.4 51975.8 lineto
57333.9 51975.8 lineto
57333.9 52132.9 lineto
57372 52224.8 lineto
57427.6 52280.4 lineto
57406.2 52294.1 lineto
57349.1 52377.7 lineto
57335.8 52443.4 lineto
54858.3 52443.4 lineto
54557.8 52142.9 lineto
poly1
newpath
63233.6 48490.8 moveto
63393.8 48490.8 lineto
63486.4 48473.4 lineto
63571.5 48418.6 lineto
63628.6 48335.1 lineto
63631.3 48321.9 lineto
63654.3 48377.5 lineto
63724.6 48447.8 lineto
63816.5 48485.9 lineto
64049 48485.9 lineto
64111.5 48423.4 lineto
64111.5 48030 lineto
64103.6 48030 lineto
64103.6 47930 lineto
64111.5 47930 lineto
64111.5 47536.6 lineto
64049 47474.1 lineto
63816.5 47474.1 lineto
63724.6 47512.2 lineto
63654.3 47582.5 lineto
63632.1 47636 lineto
63631.2 47631.4 lineto
63576.5 47546.4 lineto
63492.9 47489.3 lineto
63393.8 47469.2 lineto
62803.2 47469.2 lineto
62710.6 47486.6 lineto
62625.5 47541.4 lineto
62568.4 47624.9 lineto
62567.1 47631.6 lineto
61898.8 47631.6 lineto
61898.8 47631.5 lineto
61880.1 47532.1 lineto
61877.2 47527.7 lineto
61974.5 47548.8 lineto
62073.9 47530.1 lineto
62158.2 47474.2 lineto
62575.8 47056.6 lineto
62629 46978.7 lineto
62634 46955.6 lineto
62734.1 46955.7 lineto
62927.3 46875.8 lineto
63075.3 46728.1 lineto
63154.5 46537.4 lineto
63285.4 46668.6 lineto
63478.5 46748.8 lineto
63687.6 46749 lineto
63880.9 46669.1 lineto
64028.9 46521.4 lineto
64109 46328.3 lineto
64109.2 46177.2 lineto
64325.5 46177.2 lineto
64336.6 46236.4 lineto
64391.4 46321.5 lineto
64474.9 46378.6 lineto
64488.1 46381.3 lineto
64432.5 46404.3 lineto
64362.2 46474.6 lineto
64324.1 46566.5 lineto
64324.1 46799 lineto
64386.6 46861.5 lineto
64780 46861.5 lineto
64780 46853.6 lineto
64880 46853.6 lineto
64880 46861.5 lineto
65273.4 46861.5 lineto
65335.9 46799 lineto
65335.9 46566.5 lineto
65297.8 46474.6 lineto
65227.5 46404.3 lineto
65174 46382.1 lineto
65178.5 46381.2 lineto
65250.8 46334.7 lineto
65491.6 46334.7 lineto
65495.8 46341.2 lineto
65550.8 46378.8 lineto
65536.9 46384.6 lineto
65466.6 46454.9 lineto
65428.5 46546.8 lineto
65428.5 46641.5 lineto
65491 46704 lineto
65786 46704 lineto
65786 46696.1 lineto
65886 46696.1 lineto
65886 46704 lineto
66181 46704 lineto
66238.5 46646.5 lineto
66282.8 46715.2 lineto
66366.3 46772.3 lineto
66465.5 46792.4 lineto
66780.5 46792.4 lineto
66873.1 46775 lineto
66909.1 46751.8 lineto
67118.5 46961.2 lineto
66243.5 46961.2 lineto
66243.5 46866.5 lineto
66181 46804 lineto
65886 46804 lineto
65886 47099 lineto
65786 47099 lineto
65786 46804 lineto
65491 46804 lineto
65428.5 46866.5 lineto
65428.5 46961.2 lineto
65466.6 47053.1 lineto
65536.9 47123.5 lineto
65628.8 47161.5 lineto
65723.5 47161.5 lineto
65786 47099 lineto
65886 47099 lineto
65948.5 47161.5 lineto
66043.2 47161.5 lineto
66135.1 47123.5 lineto
66205.4 47053.1 lineto
66243.5 46961.2 lineto
67118.5 46961.2 lineto
67383.6 47226.4 lineto
67416.5 47248.3 lineto
67428.7 47256.5 lineto
65335.9 47256.5 lineto
65335.9 47024 lineto
65273.4 46961.5 lineto
64880 46961.5 lineto
64880 47394.3 lineto
64780 47394.3 lineto
64780 46961.5 lineto
64386.6 46961.5 lineto
64324.1 47024 lineto
64324.1 47256.5 lineto
64362.2 47348.4 lineto
64432.5 47418.7 lineto
64524.4 47456.8 lineto
64717.5 47456.8 lineto
64780 47394.3 lineto
64880 47394.3 lineto
64942.5 47456.8 lineto
65135.6 47456.8 lineto
65227.5 47418.7 lineto
65297.8 47348.4 lineto
65335.9 47256.5 lineto
67428.7 47256.5 lineto
67475.1 47287.5 lineto
67475.1 47380 lineto
67492.5 47472.6 lineto
67547.3 47557.7 lineto
67605.9 47597.8 lineto
67583.3 47631.6 lineto
66775.8 47631.6 lineto
66678.7 47566.7 lineto
66430 47517.3 lineto
66181.3 47566.7 lineto
66047.4 47656.2 lineto
66012.7 47602.3 lineto
65929.2 47545.2 lineto
65830 47525.1 lineto
65030 47525.1 lineto
64937.4 47542.5 lineto
64852.3 47597.3 lineto
64795.2 47680.8 lineto
64775.1 47780 lineto
64775.1 47867.5 lineto
64706.8 47867.5 lineto
64706.8 47674.4 lineto
64668.7 47582.5 lineto
64598.4 47512.2 lineto
64506.5 47474.1 lineto
64274 47474.1 lineto
64211.5 47536.6 lineto
64211.5 47930 lineto
64644.3 47930 lineto
64706.8 47867.5 lineto
64775.1 47867.5 lineto
64775.1 48285.6 lineto
64706.8 48285.6 lineto
64706.8 48092.5 lineto
64644.3 48030 lineto
64211.5 48030 lineto
64211.5 48423.4 lineto
64274 48485.9 lineto
64506.5 48485.9 lineto
64598.4 48447.8 lineto
64668.7 48377.5 lineto
64706.8 48285.6 lineto
64775.1 48285.6 lineto
64775.1 48580 lineto
64792.5 48672.6 lineto
64847.3 48757.7 lineto
64930.8 48814.8 lineto
65030 48834.9 lineto
65081.6 48834.9 lineto
65081.6 48854.7 lineto
64865.6 49070.6 lineto
64060 49070.6 lineto
63967.4 49088 lineto
63884.3 49141.5 lineto
63233.6 48490.8 lineto
poly1
newpath
53632 47533.1 moveto
53624.1 47533.1 lineto
53624.1 47433.1 lineto
53632 47433.1 lineto
53632 47425.3 lineto
53732 47425.3 lineto
53732 47433.1 lineto
53739.8 47433.1 lineto
53739.8 47533.1 lineto
53732 47533.1 lineto
53732 47541 lineto
53632 47541 lineto
53632 47533.1 lineto
poly1
1 1 1 setrgbcolor
0 setlinewidth
50680 51230 68.8976 cir1
39.3701 setlinewidth
0 setlinewidth
52830 45180 68.8976 cir1
39.3701 setlinewidth
0 setlinewidth
57930 50680 68.8976 cir1
39.3701 setlinewidth
0 setlinewidth
62630 46430 68.8976 cir1
39.3701 setlinewidth
0 setlinewidth
56300.1 52168.2 68.8976 cir1
39.3701 setlinewidth
0 setlinewidth
56300.1 53349.3 68.8976 cir1
39.3701 setlinewidth
0 setlinewidth
50689.8 52069.8 68.8976 cir1
39.3701 setlinewidth
0 setlinewidth
63977.2 48821.7 68.8976 cir1
39.3701 setlinewidth
0 setlinewidth
62993 49707.6 68.8976 cir1
39.3701 setlinewidth
0 setlinewidth
63583.5 46223.3 68.8976 cir1
39.3701 setlinewidth
0 setlinewidth
53859.1 45829.6 68.8976 cir1
39.3701 setlinewidth
0 setlinewidth
50680 49680 68.8976 cir1
39.3701 setlinewidth
0 setlinewidth
50680 50480 68.8976 cir1
39.3701 setlinewidth
0 setlinewidth
60030 50380 68.8976 cir1
39.3701 setlinewidth
0 setlinewidth
60030 49380 68.8976 cir1
39.3701 setlinewidth
0 setlinewidth
56930 42680 68.8976 cir1
39.3701 setlinewidth
0 setlinewidth
57930 42680 68.8976 cir1
39.3701 setlinewidth
0 setlinewidth
58930 42680 68.8976 cir1
39.3701 setlinewidth
0 setlinewidth
59930 42680 68.8976 cir1
39.3701 setlinewidth
0 setlinewidth
60930 42680 68.8976 cir1
39.3701 setlinewidth
0 setlinewidth
61930 42680 68.8976 cir1
39.3701 setlinewidth
0 setlinewidth
62930 42680 68.8976 cir1
39.3701 setlinewidth
0 setlinewidth
61180 53180 68.8976 cir1
39.3701 setlinewidth
0 setlinewidth
61180 52180 68.8976 cir1
39.3701 setlinewidth
0 setlinewidth
56155 50555 68.8976 cir1
39.3701 setlinewidth
0 setlinewidth
55155 50555 68.8976 cir1
39.3701 setlinewidth
0 setlinewidth
54155 50555 68.8976 cir1
39.3701 setlinewidth
0 setlinewidth
54730 43880 68.8976 cir1
39.3701 setlinewidth
0 setlinewidth
54730 42880 68.8976 cir1
39.3701 setlinewidth
0 setlinewidth
68130 46980 68.8976 cir1
39.3701 setlinewidth
0 setlinewidth
68130 47980 68.8976 cir1
39.3701 setlinewidth
0 setlinewidth
65430 48180 68.8976 cir1
39.3701 setlinewidth
0 setlinewidth
66430 48180 68.8976 cir1
39.3701 setlinewidth
0 setlinewidth
63091.4 53152.4 68.8976 cir1
39.3701 setlinewidth
0 setlinewidth
63091.4 52152.4 68.8976 cir1
39.3701 setlinewidth
0 setlinewidth
63091.4 54152.4 68.8976 cir1
39.3701 setlinewidth
0 setlinewidth
69691.4 53152.4 68.8976 cir1
39.3701 setlinewidth
0 0 0 setrgbcolor
showpage
grestore
%%EOF
