EESchema Schematic File Version 2
LIBS:power
LIBS:device
LIBS:transistors
LIBS:conn
LIBS:linear
LIBS:regul
LIBS:74xx
LIBS:cmos4000
LIBS:adc-dac
LIBS:memory
LIBS:xilinx
LIBS:microcontrollers
LIBS:dsp
LIBS:microchip
LIBS:analog_switches
LIBS:motorola
LIBS:texas
LIBS:intel
LIBS:audio
LIBS:interface
LIBS:digital-audio
LIBS:philips
LIBS:display
LIBS:cypress
LIBS:siliconi
LIBS:opto
LIBS:atmel
LIBS:contrib
LIBS:valves
LIBS:edulib
LIBS:stm32
LIBS:warsztaty
LIBS:stm32f030f4
LIBS:szafka-cache
EELAYER 25 0
EELAYER END
$Descr A4 11693 8268
encoding utf-8
Sheet 1 1
Title ""
Date ""
Rev ""
Comp ""
Comment1 ""
Comment2 ""
Comment3 ""
Comment4 ""
$EndDescr
$Comp
L C_Small C1
U 1 1 58B6D2C5
P 1800 1950
F 0 "C1" H 1810 2020 50  0000 L CNN
F 1 "100n" H 1810 1870 50  0000 L CNN
F 2 "Capacitors_SMD:C_0805_HandSoldering" H 1800 1950 50  0001 C CNN
F 3 "" H 1800 1950 50  0000 C CNN
	1    1800 1950
	1    0    0    -1  
$EndComp
$Comp
L R_Small R2
U 1 1 58B6D42B
P 1900 2900
F 0 "R2" H 1930 2920 50  0000 L CNN
F 1 "10k" H 1930 2860 50  0000 L CNN
F 2 "Resistors_SMD:R_0805_HandSoldering" H 1900 2900 50  0001 C CNN
F 3 "" H 1900 2900 50  0000 C CNN
	1    1900 2900
	-1   0    0    1   
$EndComp
$Comp
L +3.3V #PWR01
U 1 1 58B6DE07
P 2800 2500
F 0 "#PWR01" H 2800 2350 50  0001 C CNN
F 1 "+3.3V" H 2800 2640 50  0000 C CNN
F 2 "" H 2800 2500 50  0000 C CNN
F 3 "" H 2800 2500 50  0000 C CNN
	1    2800 2500
	1    0    0    -1  
$EndComp
$Comp
L GND #PWR02
U 1 1 58B6DE4F
P 2800 4400
F 0 "#PWR02" H 2800 4150 50  0001 C CNN
F 1 "GND" H 2800 4250 50  0000 C CNN
F 2 "" H 2800 4400 50  0000 C CNN
F 3 "" H 2800 4400 50  0000 C CNN
	1    2800 4400
	1    0    0    -1  
$EndComp
$Comp
L C_Small C2
U 1 1 58B6DEF8
P 2100 1950
F 0 "C2" H 2110 2020 50  0000 L CNN
F 1 "100n" H 2110 1870 50  0000 L CNN
F 2 "Capacitors_SMD:C_0805_HandSoldering" H 2100 1950 50  0001 C CNN
F 3 "" H 2100 1950 50  0000 C CNN
	1    2100 1950
	1    0    0    -1  
$EndComp
$Comp
L +3.3V #PWR03
U 1 1 58B6DF34
P 1950 1700
F 0 "#PWR03" H 1950 1550 50  0001 C CNN
F 1 "+3.3V" H 1950 1840 50  0000 C CNN
F 2 "" H 1950 1700 50  0000 C CNN
F 3 "" H 1950 1700 50  0000 C CNN
	1    1950 1700
	1    0    0    -1  
$EndComp
$Comp
L GND #PWR04
U 1 1 58B6DFA4
P 1950 2200
F 0 "#PWR04" H 1950 1950 50  0001 C CNN
F 1 "GND" H 1950 2050 50  0000 C CNN
F 2 "" H 1950 2200 50  0000 C CNN
F 3 "" H 1950 2200 50  0000 C CNN
	1    1950 2200
	1    0    0    -1  
$EndComp
$Comp
L CONN_01X07 P2
U 1 1 58B6E0BC
P 1600 3800
F 0 "P2" H 1600 4200 50  0000 C CNN
F 1 "KEYBOARD" V 1700 3800 50  0000 C CNN
F 2 "Pin_Headers:Pin_Header_Straight_1x07" H 1600 3800 50  0001 C CNN
F 3 "" H 1600 3800 50  0000 C CNN
	1    1600 3800
	-1   0    0    1   
$EndComp
Text Label 1900 4000 0    60   ~ 0
PA6
Text Label 1900 4100 0    60   ~ 0
PA5
Text Label 3400 3800 0    60   ~ 0
PA6
Text Label 3400 3900 0    60   ~ 0
PA5
$Comp
L CONN_01X03 P4
U 1 1 58B6E293
P 3850 2700
F 0 "P4" H 3850 2900 50  0000 C CNN
F 1 "STLINK" V 3950 2700 50  0000 C CNN
F 2 "Pin_Headers:Pin_Header_Straight_1x03" H 3850 2700 50  0001 C CNN
F 3 "" H 3850 2700 50  0000 C CNN
	1    3850 2700
	0    -1   -1   0   
$EndComp
$Comp
L GND #PWR05
U 1 1 58B6E3BC
P 3850 3000
F 0 "#PWR05" H 3850 2750 50  0001 C CNN
F 1 "GND" H 3850 2850 50  0000 C CNN
F 2 "" H 3850 3000 50  0000 C CNN
F 3 "" H 3850 3000 50  0000 C CNN
	1    3850 3000
	1    0    0    -1  
$EndComp
$Comp
L +3.3V #PWR06
U 1 1 58B6E567
P 1900 2700
F 0 "#PWR06" H 1900 2550 50  0001 C CNN
F 1 "+3.3V" H 1900 2840 50  0000 C CNN
F 2 "" H 1900 2700 50  0000 C CNN
F 3 "" H 1900 2700 50  0000 C CNN
	1    1900 2700
	1    0    0    -1  
$EndComp
$Comp
L CONN_01X02 P5
U 1 1 58B6E7C7
P 4100 3750
F 0 "P5" H 4100 3900 50  0000 C CNN
F 1 "BUZZER" V 4200 3750 50  0000 C CNN
F 2 "Pin_Headers:Pin_Header_Straight_1x02" H 4100 3750 50  0001 C CNN
F 3 "" H 4100 3750 50  0000 C CNN
	1    4100 3750
	1    0    0    -1  
$EndComp
$Comp
L GND #PWR07
U 1 1 58B6E83B
P 3800 3900
F 0 "#PWR07" H 3800 3650 50  0001 C CNN
F 1 "GND" H 3800 3750 50  0000 C CNN
F 2 "" H 3800 3900 50  0000 C CNN
F 3 "" H 3800 3900 50  0000 C CNN
	1    3800 3900
	1    0    0    -1  
$EndComp
$Comp
L 24C512 U3
U 1 1 58B6E964
P 5550 3200
F 0 "U3" H 5700 3550 50  0000 C CNN
F 1 "24C512" H 5750 2850 50  0000 C CNN
F 2 "Housings_SOIC:SOIC-8_3.9x4.9mm_Pitch1.27mm" H 5550 3200 50  0001 C CNN
F 3 "" H 5550 3200 50  0000 C CNN
	1    5550 3200
	-1   0    0    -1  
$EndComp
$Comp
L R_Small R3
U 1 1 58B6EAC6
P 4250 2950
F 0 "R3" H 4280 2970 50  0000 L CNN
F 1 "4k7" H 4280 2910 50  0000 L CNN
F 2 "Resistors_SMD:R_0805_HandSoldering" H 4250 2950 50  0001 C CNN
F 3 "" H 4250 2950 50  0000 C CNN
	1    4250 2950
	-1   0    0    1   
$EndComp
$Comp
L R_Small R4
U 1 1 58B6EB50
P 4450 2950
F 0 "R4" H 4480 2970 50  0000 L CNN
F 1 "4k7" H 4480 2910 50  0000 L CNN
F 2 "Resistors_SMD:R_0805_HandSoldering" H 4450 2950 50  0001 C CNN
F 3 "" H 4450 2950 50  0000 C CNN
	1    4450 2950
	-1   0    0    1   
$EndComp
$Comp
L +3.3V #PWR08
U 1 1 58B6ECD8
P 4350 2650
F 0 "#PWR08" H 4350 2500 50  0001 C CNN
F 1 "+3.3V" H 4350 2790 50  0000 C CNN
F 2 "" H 4350 2650 50  0000 C CNN
F 3 "" H 4350 2650 50  0000 C CNN
	1    4350 2650
	1    0    0    -1  
$EndComp
$Comp
L GND #PWR09
U 1 1 58B6EDA2
P 6350 3300
F 0 "#PWR09" H 6350 3050 50  0001 C CNN
F 1 "GND" H 6350 3150 50  0000 C CNN
F 2 "" H 6350 3300 50  0000 C CNN
F 3 "" H 6350 3300 50  0000 C CNN
	1    6350 3300
	1    0    0    -1  
$EndComp
$Comp
L GND #PWR010
U 1 1 58B6F24E
P 5550 3800
F 0 "#PWR010" H 5550 3550 50  0001 C CNN
F 1 "GND" H 5550 3650 50  0000 C CNN
F 2 "" H 5550 3800 50  0000 C CNN
F 3 "" H 5550 3800 50  0000 C CNN
	1    5550 3800
	1    0    0    -1  
$EndComp
$Comp
L +3.3V #PWR011
U 1 1 58B6F2C4
P 5550 2600
F 0 "#PWR011" H 5550 2450 50  0001 C CNN
F 1 "+3.3V" H 5550 2740 50  0000 C CNN
F 2 "" H 5550 2600 50  0000 C CNN
F 3 "" H 5550 2600 50  0000 C CNN
	1    5550 2600
	1    0    0    -1  
$EndComp
$Comp
L GND #PWR012
U 1 1 58B6F36D
P 4750 3100
F 0 "#PWR012" H 4750 2850 50  0001 C CNN
F 1 "GND" H 4750 2950 50  0000 C CNN
F 2 "" H 4750 3100 50  0000 C CNN
F 3 "" H 4750 3100 50  0000 C CNN
	1    4750 3100
	0    1    1    0   
$EndComp
$Comp
L +12V #PWR013
U 1 1 58B6F734
P 4250 1250
F 0 "#PWR013" H 4250 1100 50  0001 C CNN
F 1 "+12V" H 4250 1390 50  0000 C CNN
F 2 "" H 4250 1250 50  0000 C CNN
F 3 "" H 4250 1250 50  0000 C CNN
	1    4250 1250
	1    0    0    -1  
$EndComp
$Comp
L GND #PWR014
U 1 1 58B6F7C6
P 4850 1950
F 0 "#PWR014" H 4850 1700 50  0001 C CNN
F 1 "GND" H 4850 1800 50  0000 C CNN
F 2 "" H 4850 1950 50  0000 C CNN
F 3 "" H 4850 1950 50  0000 C CNN
	1    4850 1950
	1    0    0    -1  
$EndComp
$Comp
L +3.3V #PWR015
U 1 1 58B6F84D
P 5450 1250
F 0 "#PWR015" H 5450 1100 50  0001 C CNN
F 1 "+3.3V" H 5450 1390 50  0000 C CNN
F 2 "" H 5450 1250 50  0000 C CNN
F 3 "" H 5450 1250 50  0000 C CNN
	1    5450 1250
	1    0    0    -1  
$EndComp
$Comp
L C_Small C4
U 1 1 58B6F8E6
P 5450 1700
F 0 "C4" H 5460 1770 50  0000 L CNN
F 1 "100n" H 5460 1620 50  0000 L CNN
F 2 "Capacitors_SMD:C_0805_HandSoldering" H 5450 1700 50  0001 C CNN
F 3 "" H 5450 1700 50  0000 C CNN
	1    5450 1700
	1    0    0    -1  
$EndComp
$Comp
L C_Small C3
U 1 1 58B6FA68
P 4250 1700
F 0 "C3" H 4260 1770 50  0000 L CNN
F 1 "100n" H 4260 1620 50  0000 L CNN
F 2 "Capacitors_SMD:C_0805_HandSoldering" H 4250 1700 50  0001 C CNN
F 3 "" H 4250 1700 50  0000 C CNN
	1    4250 1700
	1    0    0    -1  
$EndComp
$Comp
L C_Small C5
U 1 1 58B6FD3A
P 5950 2650
F 0 "C5" H 5960 2720 50  0000 L CNN
F 1 "100n" H 5960 2570 50  0000 L CNN
F 2 "Capacitors_SMD:C_0805_HandSoldering" H 5950 2650 50  0001 C CNN
F 3 "" H 5950 2650 50  0000 C CNN
	1    5950 2650
	0    1    1    0   
$EndComp
Text Label 3400 2950 0    60   ~ 0
ZAMEK
Text Label 1350 3400 0    60   ~ 0
OSWIETLENIE
$Comp
L CONN_01X02 P1
U 1 1 58B70197
P 900 3350
F 0 "P1" H 900 3500 50  0000 C CNN
F 1 "CZUJNIK" V 1000 3350 50  0000 C CNN
F 2 "Pin_Headers:Pin_Header_Straight_1x02" H 900 3350 50  0001 C CNN
F 3 "" H 900 3350 50  0000 C CNN
	1    900  3350
	-1   0    0    1   
$EndComp
$Comp
L GND #PWR016
U 1 1 58B7038F
P 1200 3450
F 0 "#PWR016" H 1200 3200 50  0001 C CNN
F 1 "GND" H 1200 3300 50  0000 C CNN
F 2 "" H 1200 3450 50  0000 C CNN
F 3 "" H 1200 3450 50  0000 C CNN
	1    1200 3450
	1    0    0    -1  
$EndComp
$Comp
L R_Small R1
U 1 1 58B70480
P 1200 3150
F 0 "R1" H 1230 3170 50  0000 L CNN
F 1 "10k" H 1230 3110 50  0000 L CNN
F 2 "Resistors_SMD:R_0805_HandSoldering" H 1200 3150 50  0001 C CNN
F 3 "" H 1200 3150 50  0000 C CNN
	1    1200 3150
	-1   0    0    1   
$EndComp
$Comp
L +3.3V #PWR017
U 1 1 58B705DD
P 1200 3000
F 0 "#PWR017" H 1200 2850 50  0001 C CNN
F 1 "+3.3V" H 1200 3140 50  0000 C CNN
F 2 "" H 1200 3000 50  0000 C CNN
F 3 "" H 1200 3000 50  0000 C CNN
	1    1200 3000
	1    0    0    -1  
$EndComp
$Comp
L Q_NMOS_GSD Q1
U 1 1 58B7081A
P 7950 2050
F 0 "Q1" H 8250 2100 50  0000 R CNN
F 1 "Q_NMOS_GSD" H 8600 2000 50  0000 R CNN
F 2 "TO_SOT_Packages_SMD:SOT-23" H 8150 2150 50  0001 C CNN
F 3 "" H 7950 2050 50  0000 C CNN
	1    7950 2050
	1    0    0    -1  
$EndComp
Text Label 7200 2050 0    60   ~ 0
ZAMEK
$Comp
L GND #PWR018
U 1 1 58B709C7
P 8050 2450
F 0 "#PWR018" H 8050 2200 50  0001 C CNN
F 1 "GND" H 8050 2300 50  0000 C CNN
F 2 "" H 8050 2450 50  0000 C CNN
F 3 "" H 8050 2450 50  0000 C CNN
	1    8050 2450
	1    0    0    -1  
$EndComp
$Comp
L R_Small R5
U 1 1 58B70A41
P 7650 2200
F 0 "R5" H 7680 2220 50  0000 L CNN
F 1 "10k" H 7680 2160 50  0000 L CNN
F 2 "Resistors_SMD:R_0805_HandSoldering" H 7650 2200 50  0001 C CNN
F 3 "" H 7650 2200 50  0000 C CNN
	1    7650 2200
	1    0    0    -1  
$EndComp
$Comp
L CONN_01X02 P6
U 1 1 58B70CA0
P 7750 1500
F 0 "P6" H 7750 1650 50  0000 C CNN
F 1 "ZAMEK" V 7850 1500 50  0000 C CNN
F 2 "Pin_Headers:Pin_Header_Straight_1x02" H 7750 1500 50  0001 C CNN
F 3 "" H 7750 1500 50  0000 C CNN
	1    7750 1500
	-1   0    0    1   
$EndComp
$Comp
L D_Small D1
U 1 1 58B70E81
P 8250 1500
F 0 "D1" H 8200 1580 50  0000 L CNN
F 1 "D_Small" H 8100 1420 50  0000 L CNN
F 2 "Capacitors_Tantalum_SMD:TantalC_SizeC_EIA-6032_HandSoldering" V 8250 1500 50  0001 C CNN
F 3 "" V 8250 1500 50  0000 C CNN
	1    8250 1500
	0    1    1    0   
$EndComp
$Comp
L +12V #PWR019
U 1 1 58B71022
P 8050 1100
F 0 "#PWR019" H 8050 950 50  0001 C CNN
F 1 "+12V" H 8050 1240 50  0000 C CNN
F 2 "" H 8050 1100 50  0000 C CNN
F 3 "" H 8050 1100 50  0000 C CNN
	1    8050 1100
	1    0    0    -1  
$EndComp
$Comp
L Q_NMOS_GSD Q2
U 1 1 58B71FAD
P 9650 2050
F 0 "Q2" H 9950 2100 50  0000 R CNN
F 1 "Q_NMOS_GSD" H 10300 2000 50  0000 R CNN
F 2 "TO_SOT_Packages_SMD:SOT-23" H 9850 2150 50  0001 C CNN
F 3 "" H 9650 2050 50  0000 C CNN
	1    9650 2050
	1    0    0    -1  
$EndComp
$Comp
L GND #PWR020
U 1 1 58B72186
P 9750 2450
F 0 "#PWR020" H 9750 2200 50  0001 C CNN
F 1 "GND" H 9750 2300 50  0000 C CNN
F 2 "" H 9750 2450 50  0000 C CNN
F 3 "" H 9750 2450 50  0000 C CNN
	1    9750 2450
	1    0    0    -1  
$EndComp
$Comp
L CONN_01X02 P7
U 1 1 58B721D7
P 9400 1500
F 0 "P7" H 9400 1650 50  0000 C CNN
F 1 "OSWIETLENIE" V 9500 1500 50  0000 C CNN
F 2 "Pin_Headers:Pin_Header_Straight_1x02" H 9400 1500 50  0001 C CNN
F 3 "" H 9400 1500 50  0000 C CNN
	1    9400 1500
	-1   0    0    1   
$EndComp
$Comp
L D_Small D2
U 1 1 58B722DA
P 10000 1500
F 0 "D2" H 9950 1580 50  0000 L CNN
F 1 "D_Small" H 9850 1420 50  0000 L CNN
F 2 "Capacitors_Tantalum_SMD:TantalC_SizeC_EIA-6032_HandSoldering" V 10000 1500 50  0001 C CNN
F 3 "" V 10000 1500 50  0000 C CNN
	1    10000 1500
	0    1    1    0   
$EndComp
$Comp
L +12V #PWR021
U 1 1 58B727D4
P 9750 1100
F 0 "#PWR021" H 9750 950 50  0001 C CNN
F 1 "+12V" H 9750 1240 50  0000 C CNN
F 2 "" H 9750 1100 50  0000 C CNN
F 3 "" H 9750 1100 50  0000 C CNN
	1    9750 1100
	1    0    0    -1  
$EndComp
$Comp
L R_Small R6
U 1 1 58B728CA
P 9350 2200
F 0 "R6" H 9380 2220 50  0000 L CNN
F 1 "10k" H 9380 2160 50  0000 L CNN
F 2 "Resistors_SMD:R_0805_HandSoldering" H 9350 2200 50  0001 C CNN
F 3 "" H 9350 2200 50  0000 C CNN
	1    9350 2200
	1    0    0    -1  
$EndComp
Text Label 8900 2050 0    60   ~ 0
OSWIETLENIE
$Comp
L CONN_01X02 P3
U 1 1 58B72D63
P 3800 1200
F 0 "P3" H 3800 1350 50  0000 C CNN
F 1 "DC_IN" V 3900 1200 50  0000 C CNN
F 2 "Pin_Headers:Pin_Header_Straight_1x02" H 3800 1200 50  0001 C CNN
F 3 "" H 3800 1200 50  0000 C CNN
	1    3800 1200
	0    -1   -1   0   
$EndComp
Wire Wire Line
	2700 2500 2900 2500
Wire Wire Line
	2700 2500 2700 2650
Wire Wire Line
	2900 2500 2900 2650
Connection ~ 2800 2500
Wire Wire Line
	2800 4250 2800 4400
Wire Wire Line
	1800 1850 1800 1800
Wire Wire Line
	1800 1800 2100 1800
Wire Wire Line
	1950 1800 1950 1700
Wire Wire Line
	2100 1800 2100 1850
Connection ~ 1950 1800
Wire Wire Line
	2100 2100 2100 2050
Wire Wire Line
	1800 2100 2100 2100
Wire Wire Line
	1800 2100 1800 2050
Wire Wire Line
	1950 2100 1950 2200
Connection ~ 1950 2100
Wire Wire Line
	1800 3500 2200 3500
Wire Wire Line
	2200 3600 1800 3600
Wire Wire Line
	1800 3700 2200 3700
Wire Wire Line
	2200 3800 1800 3800
Wire Wire Line
	1800 3900 2200 3900
Wire Wire Line
	1800 4100 1900 4100
Wire Wire Line
	1800 4000 1900 4000
Wire Wire Line
	3400 3700 3900 3700
Wire Wire Line
	3400 3150 3750 3150
Wire Wire Line
	3750 3150 3750 2900
Wire Wire Line
	3950 3250 3400 3250
Wire Wire Line
	3950 2900 3950 3250
Wire Wire Line
	3850 3000 3850 2900
Wire Wire Line
	2200 3050 1900 3050
Wire Wire Line
	1900 3050 1900 3000
Wire Wire Line
	1900 2800 1900 2700
Wire Wire Line
	2200 3400 1350 3400
Wire Wire Line
	1100 3300 2200 3300
Wire Wire Line
	3800 3900 3800 3800
Wire Wire Line
	3800 3800 3900 3800
Wire Wire Line
	3400 3400 4850 3400
Wire Wire Line
	4250 3500 3400 3500
Wire Wire Line
	4250 2850 4250 2750
Wire Wire Line
	4250 2750 4450 2750
Wire Wire Line
	4450 2750 4450 2850
Wire Wire Line
	4350 2650 4350 2750
Connection ~ 4350 2750
Wire Wire Line
	4250 3050 4250 3500
Wire Wire Line
	4450 3050 4450 3400
Connection ~ 4450 3400
Wire Wire Line
	4850 3300 4250 3300
Connection ~ 4250 3300
Wire Wire Line
	6350 3200 6250 3200
Wire Wire Line
	6350 2650 6350 3300
Wire Wire Line
	6250 3100 6350 3100
Connection ~ 6350 3200
Wire Wire Line
	6250 3000 6350 3000
Connection ~ 6350 3100
Wire Wire Line
	5550 3700 5550 3800
Wire Wire Line
	5550 2600 5550 2700
Wire Wire Line
	4750 3100 4850 3100
Wire Wire Line
	4250 1250 4250 1600
Wire Wire Line
	4850 1750 4850 1950
Wire Wire Line
	5450 1250 5450 1600
Connection ~ 5450 1450
Wire Wire Line
	5450 1800 5450 1950
Wire Wire Line
	3750 1900 5450 1900
Connection ~ 4850 1900
Connection ~ 4250 1450
Wire Wire Line
	4250 1800 4250 1900
Wire Wire Line
	5550 2650 5850 2650
Connection ~ 5550 2650
Wire Wire Line
	6050 2650 6350 2650
Connection ~ 6350 3000
Wire Wire Line
	1100 3400 1200 3400
Wire Wire Line
	1200 3400 1200 3450
Wire Wire Line
	1200 3250 1200 3300
Connection ~ 1200 3300
Wire Wire Line
	1200 3050 1200 3000
Wire Wire Line
	7200 2050 7750 2050
Wire Wire Line
	8050 2250 8050 2450
Wire Wire Line
	7650 2100 7650 2050
Connection ~ 7650 2050
Wire Wire Line
	7650 2300 7650 2350
Wire Wire Line
	7650 2350 8050 2350
Connection ~ 8050 2350
Wire Wire Line
	8050 1550 8050 1850
Wire Wire Line
	7950 1550 8050 1550
Wire Wire Line
	8050 1450 7950 1450
Wire Wire Line
	8050 1100 8050 1450
Wire Wire Line
	8050 1700 8250 1700
Wire Wire Line
	8250 1700 8250 1600
Connection ~ 8050 1700
Wire Wire Line
	8050 1300 8250 1300
Wire Wire Line
	8250 1300 8250 1400
Connection ~ 8050 1300
Wire Wire Line
	8900 2050 9450 2050
Wire Wire Line
	9350 2350 9750 2350
Wire Wire Line
	9750 2250 9750 2450
Connection ~ 9750 2350
Wire Wire Line
	9600 1550 9750 1550
Wire Wire Line
	9750 1550 9750 1850
Wire Wire Line
	9750 1450 9600 1450
Wire Wire Line
	9750 1100 9750 1450
Wire Wire Line
	9750 1700 10000 1700
Wire Wire Line
	10000 1700 10000 1600
Connection ~ 9750 1700
Wire Wire Line
	10000 1300 10000 1400
Wire Wire Line
	10000 1300 9750 1300
Connection ~ 9750 1300
Wire Wire Line
	9350 2350 9350 2300
Wire Wire Line
	9350 2050 9350 2100
Connection ~ 9350 2050
Wire Wire Line
	3850 1450 3850 1400
Wire Wire Line
	3750 1400 3750 1900
Connection ~ 4250 1900
$Comp
L PWR_FLAG #FLG022
U 1 1 58B73333
P 5450 1950
F 0 "#FLG022" H 5450 2045 50  0001 C CNN
F 1 "PWR_FLAG" H 5450 2130 50  0000 C CNN
F 2 "" H 5450 1950 50  0000 C CNN
F 3 "" H 5450 1950 50  0000 C CNN
	1    5450 1950
	-1   0    0    1   
$EndComp
Connection ~ 5450 1900
$Comp
L PWR_FLAG #FLG023
U 1 1 58B73418
P 4000 1550
F 0 "#FLG023" H 4000 1645 50  0001 C CNN
F 1 "PWR_FLAG" H 4000 1730 50  0000 C CNN
F 2 "" H 4000 1550 50  0000 C CNN
F 3 "" H 4000 1550 50  0000 C CNN
	1    4000 1550
	-1   0    0    1   
$EndComp
Wire Wire Line
	4000 1550 4000 1450
Connection ~ 4000 1450
$Comp
L STM32F030F4 U1
U 1 1 58B740A0
P 2800 3450
F 0 "U1" H 2450 2800 60  0000 C CNN
F 1 "STM32F030F4" H 3150 2800 60  0000 C CNN
F 2 "Housings_SSOP:TSSOP-20_4.4x6.5mm_Pitch0.65mm" H 2850 3450 60  0001 C CNN
F 3 "" H 2800 3450 60  0000 C CNN
	1    2800 3450
	1    0    0    -1  
$EndComp
$Comp
L GND #PWR024
U 1 1 58B74114
P 2100 3100
F 0 "#PWR024" H 2100 2850 50  0001 C CNN
F 1 "GND" H 2100 2950 50  0000 C CNN
F 2 "" H 2100 3100 50  0000 C CNN
F 3 "" H 2100 3100 50  0000 C CNN
	1    2100 3100
	1    0    0    -1  
$EndComp
Wire Wire Line
	2100 3100 2100 2950
Wire Wire Line
	2100 2950 2200 2950
$Comp
L LM7805CT U2
U 1 1 58B70F4C
P 4850 1500
F 0 "U2" H 4650 1700 50  0000 C CNN
F 1 "LF33CV" H 4850 1700 50  0000 L CNN
F 2 "TO_SOT_Packages_THT:TO-220_Neutral123_Horizontal_LargePads" H 4850 1600 50  0000 C CIN
F 3 "" H 4850 1500 50  0000 C CNN
	1    4850 1500
	1    0    0    -1  
$EndComp
Wire Wire Line
	5250 1450 5450 1450
Wire Wire Line
	3850 1450 4450 1450
$EndSCHEMATC
