%!PS-Adobe-3.0
%%Creator: PCBNEW
%%CreationDate: Sun Mar  5 13:27:14 2017
%%Title: /home/maly/Projekty/Projekty_GIT/szafka/Elektronika/szafka-F.SilkS.ps
%%Pages: 1
%%PageOrder: Ascend
%%BoundingBox: 0 0 596 842
%%DocumentMedia: A4 595 842 0 () ()
%%Orientation: Landscape
%%EndComments
%%BeginProlog
/line { newpath moveto lineto stroke } bind def
/cir0 { newpath 0 360 arc stroke } bind def
/cir1 { newpath 0 360 arc gsave fill grestore stroke } bind def
/cir2 { newpath 0 360 arc gsave fill grestore stroke } bind def
/arc0 { newpath arc stroke } bind def
/arc1 { newpath 4 index 4 index moveto arc closepath gsave fill
    grestore stroke } bind def
/arc2 { newpath 4 index 4 index moveto arc closepath gsave fill
    grestore stroke } bind def
/poly0 { stroke } bind def
/poly1 { closepath gsave fill grestore stroke } bind def
/poly2 { closepath gsave fill grestore stroke } bind def
/rect0 { rectstroke } bind def
/rect1 { rectfill } bind def
/rect2 { rectfill } bind def
/linemode0 { 0 setlinecap 0 setlinejoin 0 setlinewidth } bind def
/linemode1 { 1 setlinecap 1 setlinejoin } bind def
/dashedline { [200] 100 setdash } bind def
/solidline { [] 0 setdash } bind def
/phantomshow { moveto
    /KicadFont findfont 0.000001 scalefont setfont
    show } bind def
/textshow { gsave
    findfont exch scalefont setfont concat 1 scale 0 0 moveto show
    } bind def
/reencodefont {
  findfont dup length dict begin
  { 1 index /FID ne
    { def }
    { pop pop } ifelse
  } forall
  /Encoding ISOLatin1Encoding def
  currentdict
  end } bind def
/KicadFont /Helvetica reencodefont definefont pop
/KicadFont-Bold /Helvetica-Bold reencodefont definefont pop
/KicadFont-Oblique /Helvetica-Oblique reencodefont definefont pop
/KicadFont-BoldOblique /Helvetica-BoldOblique reencodefont definefont pop
%%EndProlog
%%Page: 1 1
%%BeginPageSetup
gsave
0.0072 0.0072 scale
linemode1
82680 0 translate 90 rotate
39.3701 setlinewidth
%%EndPageSetup
0 0 0 setrgbcolor
0 0 0 setrgbcolor
59.0551 setlinewidth
newpath
57495.4 52083.1 moveto
57495.4 52476.9 lineto
stroke
0 0 0 setrgbcolor
newpath
58164.6 52476.9 moveto
58164.6 52083.1 lineto
stroke
0 0 0 setrgbcolor
newpath
54826.9 51345.4 moveto
54433.1 51345.4 lineto
stroke
0 0 0 setrgbcolor
newpath
54433.1 52014.6 moveto
54826.9 52014.6 lineto
stroke
0 0 0 setrgbcolor
newpath
61833.1 51114.6 moveto
62226.9 51114.6 lineto
stroke
0 0 0 setrgbcolor
newpath
62226.9 50445.4 moveto
61833.1 50445.4 lineto
stroke
0 0 0 setrgbcolor
newpath
53977.2 47817.8 moveto
54370.9 47817.8 lineto
stroke
0 0 0 setrgbcolor
newpath
54370.9 47148.5 moveto
53977.2 47148.5 lineto
stroke
0 0 0 setrgbcolor
newpath
62177.4 46255.8 moveto
62455.8 45977.4 lineto
stroke
0 0 0 setrgbcolor
newpath
61982.6 45504.2 moveto
61704.2 45782.6 lineto
stroke
0 0 0 setrgbcolor
newpath
59530 49880 moveto
59530 48880 lineto
stroke
0 0 0 setrgbcolor
newpath
59419.8 50990.2 moveto
59419.8 50380 lineto
stroke
0 0 0 setrgbcolor
newpath
59530 49880 moveto
60530 49880 lineto
stroke
0 0 0 setrgbcolor
newpath
60640.2 50380 moveto
60640.2 50990.2 lineto
stroke
0 0 0 setrgbcolor
newpath
60640.2 50990.2 moveto
59419.8 50990.2 lineto
stroke
0 0 0 setrgbcolor
newpath
60530 49880 moveto
60530 48880 lineto
stroke
0 0 0 setrgbcolor
newpath
60530 48880 moveto
59530 48880 lineto
stroke
0 0 0 setrgbcolor
newpath
57430 42180 moveto
63430 42180 lineto
stroke
0 0 0 setrgbcolor
newpath
63430 42180 moveto
63430 43180 lineto
stroke
0 0 0 setrgbcolor
newpath
63430 43180 moveto
57430 43180 lineto
stroke
0 0 0 setrgbcolor
newpath
56319.8 42069.8 moveto
56930 42069.8 lineto
stroke
0 0 0 setrgbcolor
newpath
57430 42180 moveto
57430 43180 lineto
stroke
0 0 0 setrgbcolor
newpath
56930 43290.2 moveto
56319.8 43290.2 lineto
stroke
0 0 0 setrgbcolor
newpath
56319.8 43290.2 moveto
56319.8 42069.8 lineto
stroke
0 0 0 setrgbcolor
newpath
60680 52680 moveto
60680 51680 lineto
stroke
0 0 0 setrgbcolor
newpath
60569.8 53790.2 moveto
60569.8 53180 lineto
stroke
0 0 0 setrgbcolor
newpath
60680 52680 moveto
61680 52680 lineto
stroke
0 0 0 setrgbcolor
newpath
61790.2 53180 moveto
61790.2 53790.2 lineto
stroke
0 0 0 setrgbcolor
newpath
61790.2 53790.2 moveto
60569.8 53790.2 lineto
stroke
0 0 0 setrgbcolor
newpath
61680 52680 moveto
61680 51680 lineto
stroke
0 0 0 setrgbcolor
newpath
61680 51680 moveto
60680 51680 lineto
stroke
0 0 0 setrgbcolor
newpath
55655 50055 moveto
53655 50055 lineto
stroke
0 0 0 setrgbcolor
newpath
53655 50055 moveto
53655 51055 lineto
stroke
0 0 0 setrgbcolor
newpath
53655 51055 moveto
55655 51055 lineto
stroke
0 0 0 setrgbcolor
newpath
56765.2 51165.2 moveto
56155 51165.2 lineto
stroke
0 0 0 setrgbcolor
newpath
55655 51055 moveto
55655 50055 lineto
stroke
0 0 0 setrgbcolor
newpath
56155 49944.8 moveto
56765.2 49944.8 lineto
stroke
0 0 0 setrgbcolor
newpath
56765.2 49944.8 moveto
56765.2 51165.2 lineto
stroke
0 0 0 setrgbcolor
newpath
54230 43380 moveto
54230 42380 lineto
stroke
0 0 0 setrgbcolor
newpath
54119.8 44490.2 moveto
54119.8 43880 lineto
stroke
0 0 0 setrgbcolor
newpath
54230 43380 moveto
55230 43380 lineto
stroke
0 0 0 setrgbcolor
newpath
55340.2 43880 moveto
55340.2 44490.2 lineto
stroke
0 0 0 setrgbcolor
newpath
55340.2 44490.2 moveto
54119.8 44490.2 lineto
stroke
0 0 0 setrgbcolor
newpath
55230 43380 moveto
55230 42380 lineto
stroke
0 0 0 setrgbcolor
newpath
55230 42380 moveto
54230 42380 lineto
stroke
0 0 0 setrgbcolor
newpath
68630 47480 moveto
68630 48480 lineto
stroke
0 0 0 setrgbcolor
newpath
68740.2 46369.8 moveto
68740.2 46980 lineto
stroke
0 0 0 setrgbcolor
newpath
68630 47480 moveto
67630 47480 lineto
stroke
0 0 0 setrgbcolor
newpath
67519.8 46980 moveto
67519.8 46369.8 lineto
stroke
0 0 0 setrgbcolor
newpath
67519.8 46369.8 moveto
68740.2 46369.8 lineto
stroke
0 0 0 setrgbcolor
newpath
67630 47480 moveto
67630 48480 lineto
stroke
0 0 0 setrgbcolor
newpath
67630 48480 moveto
68630 48480 lineto
stroke
0 0 0 setrgbcolor
newpath
65930 47680 moveto
66930 47680 lineto
stroke
0 0 0 setrgbcolor
newpath
64819.8 47569.8 moveto
65430 47569.8 lineto
stroke
0 0 0 setrgbcolor
newpath
65930 47680 moveto
65930 48680 lineto
stroke
0 0 0 setrgbcolor
newpath
65430 48790.2 moveto
64819.8 48790.2 lineto
stroke
0 0 0 setrgbcolor
newpath
64819.8 48790.2 moveto
64819.8 47569.8 lineto
stroke
0 0 0 setrgbcolor
newpath
65930 48680 moveto
66930 48680 lineto
stroke
0 0 0 setrgbcolor
newpath
66930 48680 moveto
66930 47680 lineto
stroke
0 0 0 setrgbcolor
newpath
66486 46891.5 moveto
66486 46872.5 lineto
stroke
0 0 0 setrgbcolor
newpath
66210 45789.5 moveto
66486 45789.5 lineto
stroke
0 0 0 setrgbcolor
newpath
66486 45789.5 moveto
66486 45887.5 lineto
stroke
0 0 0 setrgbcolor
newpath
66486 46891.5 moveto
66486 46970.5 lineto
stroke
0 0 0 setrgbcolor
newpath
66486 46970.5 moveto
66210 46970.5 lineto
stroke
0 0 0 setrgbcolor
newpath
62186 49191.5 moveto
62186 49172.5 lineto
stroke
0 0 0 setrgbcolor
newpath
61910 48089.5 moveto
62186 48089.5 lineto
stroke
0 0 0 setrgbcolor
newpath
62186 48089.5 moveto
62186 48187.5 lineto
stroke
0 0 0 setrgbcolor
newpath
62186 49191.5 moveto
62186 49270.5 lineto
stroke
0 0 0 setrgbcolor
newpath
62186 49270.5 moveto
61910 49270.5 lineto
stroke
0 0 0 setrgbcolor
newpath
58385.5 50416.2 moveto
58385.5 49943.8 lineto
stroke
0 0 0 setrgbcolor
newpath
59074.5 49943.8 moveto
59074.5 50416.2 lineto
stroke
0 0 0 setrgbcolor
newpath
62040.6 47356.6 moveto
61706.6 47690.6 lineto
stroke
0 0 0 setrgbcolor
newpath
61219.4 47203.4 moveto
61553.4 46869.4 lineto
stroke
0 0 0 setrgbcolor
newpath
51185.5 50516.2 moveto
51185.5 50043.8 lineto
stroke
0 0 0 setrgbcolor
newpath
51874.5 50043.8 moveto
51874.5 50516.2 lineto
stroke
0 0 0 setrgbcolor
newpath
52185.5 50516.2 moveto
52185.5 50043.8 lineto
stroke
0 0 0 setrgbcolor
newpath
52874.5 50043.8 moveto
52874.5 50516.2 lineto
stroke
0 0 0 setrgbcolor
newpath
64485.5 46616.2 moveto
64485.5 46143.8 lineto
stroke
0 0 0 setrgbcolor
newpath
65174.5 46143.8 moveto
65174.5 46616.2 lineto
stroke
0 0 0 setrgbcolor
newpath
63866.2 48324.5 moveto
63393.8 48324.5 lineto
stroke
0 0 0 setrgbcolor
newpath
63393.8 47635.5 moveto
63866.2 47635.5 lineto
stroke
0 0 0 setrgbcolor
newpath
58306 46351.3 moveto
56554 46351.3 lineto
stroke
0 0 0 setrgbcolor
newpath
58906.4 49008.7 moveto
56554 49008.7 lineto
stroke
0 0 0 setrgbcolor
newpath
51113.1 46666.2 moveto
51113.1 46723.3 lineto
stroke
0 0 0 setrgbcolor
newpath
52746.9 46666.2 moveto
52746.9 46723.3 lineto
stroke
0 0 0 setrgbcolor
newpath
52746.9 48693.8 moveto
52746.9 48636.7 lineto
stroke
0 0 0 setrgbcolor
newpath
51113.1 48693.8 moveto
51113.1 48636.7 lineto
stroke
0 0 0 setrgbcolor
newpath
51113.1 46666.2 moveto
52746.9 46666.2 lineto
stroke
0 0 0 setrgbcolor
newpath
51113.1 48693.8 moveto
52746.9 48693.8 lineto
stroke
0 0 0 setrgbcolor
newpath
51113.1 46723.3 moveto
50561.9 46723.3 lineto
stroke
0 0 0 setrgbcolor
newpath
68961 49497 moveto
70299 49497 lineto
stroke
0 0 0 setrgbcolor
newpath
70299 46249 moveto
70299 48611 lineto
stroke
0 0 0 setrgbcolor
newpath
68961 46249 moveto
68961 48611 lineto
stroke
0 0 0 setrgbcolor
newpath
68566 49695 moveto
68999 49695 lineto
stroke
0 0 0 setrgbcolor
newpath
68763 49931 moveto
68763 49459 lineto
stroke
0 0 0 setrgbcolor
newpath
67997 50349 moveto
67997 49011 lineto
stroke
0 0 0 setrgbcolor
newpath
64749 49011 moveto
67111 49011 lineto
stroke
0 0 0 setrgbcolor
newpath
64749 50349 moveto
67111 50349 lineto
stroke
0 0 0 setrgbcolor
newpath
68195 50744 moveto
68195 50311 lineto
stroke
0 0 0 setrgbcolor
newpath
68431 50547 moveto
67959 50547 lineto
stroke
0 0 0 setrgbcolor
newpath
64541.4 52152.4 moveto
63991.4 52152.4 lineto
stroke
0 0 0 setrgbcolor
newpath
64541.4 53152.4 moveto
63991.4 53152.4 lineto
stroke
0 0 0 setrgbcolor
newpath
64541.4 54152.4 moveto
63991.4 54152.4 lineto
stroke
0 0 0 setrgbcolor
69691.4 53152.4 989.95 cir0
0 0 0 setrgbcolor
newpath
67891.4 55252.4 moveto
71041.4 55252.4 lineto
stroke
0 0 0 setrgbcolor
newpath
71041.4 55252.4 moveto
71041.4 51052.4 lineto
stroke
0 0 0 setrgbcolor
newpath
71041.4 51052.4 moveto
67891.4 51052.4 lineto
stroke
0 0 0 setrgbcolor
newpath
64541.4 55252.4 moveto
67891.4 55252.4 lineto
stroke
0 0 0 setrgbcolor
newpath
67891.4 55252.4 moveto
67891.4 51052.4 lineto
stroke
0 0 0 setrgbcolor
newpath
67891.4 51052.4 moveto
64541.4 51052.4 lineto
stroke
0 0 0 setrgbcolor
newpath
64541.4 53152.4 moveto
64541.4 51052.4 lineto
stroke
0 0 0 setrgbcolor
newpath
64541.4 53152.4 moveto
64541.4 55252.4 lineto
stroke
0 0 0 setrgbcolor
0 0 0 setrgbcolor
0 0 0 setrgbcolor
newpath
56862.6 52214.4 moveto
56843.9 52195.6 lineto
56825.1 52139.4 lineto
56825.1 52101.9 lineto
56843.9 52045.7 lineto
56881.4 52008.2 lineto
56918.9 51989.4 lineto
56993.9 51970.7 lineto
57050.1 51970.7 lineto
57125.1 51989.4 lineto
57162.6 52008.2 lineto
57200.1 52045.7 lineto
57218.8 52101.9 lineto
57218.8 52139.4 lineto
57200.1 52195.6 lineto
57181.3 52214.4 lineto
stroke
newpath
56825.1 52589.3 moveto
56825.1 52364.4 lineto
stroke
newpath
56825.1 52476.9 moveto
57218.8 52476.9 lineto
57162.6 52439.4 lineto
57125.1 52401.9 lineto
57106.3 52364.4 lineto
stroke
0 0 0 setrgbcolor
0 0 0 setrgbcolor
0 0 0 setrgbcolor
newpath
54695.6 50712.6 moveto
54714.4 50693.9 lineto
54770.6 50675.1 lineto
54808.1 50675.1 lineto
54864.3 50693.9 lineto
54901.8 50731.4 lineto
54920.6 50768.9 lineto
54939.3 50843.9 lineto
54939.3 50900.1 lineto
54920.6 50975.1 lineto
54901.8 51012.6 lineto
54864.3 51050.1 lineto
54808.1 51068.8 lineto
54770.6 51068.8 lineto
54714.4 51050.1 lineto
54695.6 51031.3 lineto
stroke
newpath
54545.6 51031.3 moveto
54526.9 51050.1 lineto
54489.4 51068.8 lineto
54395.7 51068.8 lineto
54358.2 51050.1 lineto
54339.4 51031.3 lineto
54320.7 50993.8 lineto
54320.7 50956.3 lineto
54339.4 50900.1 lineto
54564.4 50675.1 lineto
54320.7 50675.1 lineto
stroke
0 0 0 setrgbcolor
0 0 0 setrgbcolor
0 0 0 setrgbcolor
newpath
62095.6 51466.2 moveto
62114.4 51447.4 lineto
62170.6 51428.7 lineto
62208.1 51428.7 lineto
62264.3 51447.4 lineto
62301.8 51484.9 lineto
62320.6 51522.4 lineto
62339.3 51597.4 lineto
62339.3 51653.6 lineto
62320.6 51728.6 lineto
62301.8 51766.1 lineto
62264.3 51803.6 lineto
62208.1 51822.4 lineto
62170.6 51822.4 lineto
62114.4 51803.6 lineto
62095.6 51784.9 lineto
stroke
newpath
61964.4 51822.4 moveto
61720.7 51822.4 lineto
61851.9 51672.4 lineto
61795.7 51672.4 lineto
61758.2 51653.6 lineto
61739.4 51634.9 lineto
61720.7 51597.4 lineto
61720.7 51503.7 lineto
61739.4 51466.2 lineto
61758.2 51447.4 lineto
61795.7 51428.7 lineto
61908.1 51428.7 lineto
61945.6 51447.4 lineto
61964.4 51466.2 lineto
stroke
0 0 0 setrgbcolor
0 0 0 setrgbcolor
0 0 0 setrgbcolor
newpath
54239.7 48169.3 moveto
54258.5 48150.6 lineto
54314.7 48131.8 lineto
54352.2 48131.8 lineto
54408.4 48150.6 lineto
54445.9 48188.1 lineto
54464.7 48225.6 lineto
54483.4 48300.5 lineto
54483.4 48356.8 lineto
54464.7 48431.8 lineto
54445.9 48469.3 lineto
54408.4 48506.8 lineto
54352.2 48525.5 lineto
54314.7 48525.5 lineto
54258.5 48506.8 lineto
54239.7 48488 lineto
stroke
newpath
53902.3 48394.3 moveto
53902.3 48131.8 lineto
stroke
newpath
53996 48544.3 moveto
54089.7 48263.1 lineto
53846 48263.1 lineto
stroke
0 0 0 setrgbcolor
0 0 0 setrgbcolor
0 0 0 setrgbcolor
newpath
62611.6 46318.8 moveto
62611.6 46292.3 lineto
62638.1 46239.3 lineto
62664.6 46212.7 lineto
62717.6 46186.2 lineto
62770.7 46186.2 lineto
62810.4 46199.5 lineto
62876.7 46239.3 lineto
62916.5 46279 lineto
62956.3 46345.3 lineto
62969.5 46385.1 lineto
62969.5 46438.1 lineto
62943 46491.1 lineto
62916.5 46517.6 lineto
62863.5 46544.2 lineto
62837 46544.2 lineto
stroke
newpath
62611.6 46822.5 moveto
62744.2 46690 lineto
62624.8 46544.2 lineto
62624.8 46570.7 lineto
62611.6 46610.4 lineto
62545.3 46676.7 lineto
62505.5 46690 lineto
62479 46690 lineto
62439.3 46676.7 lineto
62373 46610.4 lineto
62359.7 46570.7 lineto
62359.7 46544.2 lineto
62373 46504.4 lineto
62439.3 46438.1 lineto
62479 46424.8 lineto
62505.5 46424.8 lineto
stroke
0 0 0 setrgbcolor
0 0 0 setrgbcolor
0 0 0 setrgbcolor
newpath
60320.6 52209.8 moveto
60320.6 52603.5 lineto
60170.6 52603.5 lineto
60133.1 52584.7 lineto
60114.4 52566 lineto
60095.6 52528.5 lineto
60095.6 52472.2 lineto
60114.4 52434.7 lineto
60133.1 52416 lineto
60170.6 52397.2 lineto
60320.6 52397.2 lineto
stroke
newpath
59720.7 52209.8 moveto
59945.6 52209.8 lineto
stroke
newpath
59833.1 52209.8 moveto
59833.1 52603.5 lineto
59870.6 52547.2 lineto
59908.1 52509.7 lineto
59945.6 52491 lineto
stroke
0 0 0 setrgbcolor
0 0 0 setrgbcolor
0 0 0 setrgbcolor
newpath
54744 42389.4 moveto
55137.7 42389.4 lineto
55137.7 42539.4 lineto
55119 42576.9 lineto
55100.2 42595.6 lineto
55062.7 42614.4 lineto
55006.5 42614.4 lineto
54969 42595.6 lineto
54950.2 42576.9 lineto
54931.5 42539.4 lineto
54931.5 42389.4 lineto
stroke
newpath
55100.2 42764.4 moveto
55119 42783.1 lineto
55137.7 42820.6 lineto
55137.7 42914.3 lineto
55119 42951.8 lineto
55100.2 42970.6 lineto
55062.7 42989.3 lineto
55025.2 42989.3 lineto
54969 42970.6 lineto
54744 42745.6 lineto
54744 42989.3 lineto
stroke
0 0 0 setrgbcolor
0 0 0 setrgbcolor
0 0 0 setrgbcolor
newpath
61470.6 55009.8 moveto
61470.6 55403.5 lineto
61320.6 55403.5 lineto
61283.1 55384.7 lineto
61264.4 55366 lineto
61245.6 55328.5 lineto
61245.6 55272.2 lineto
61264.4 55234.7 lineto
61283.1 55216 lineto
61320.6 55197.2 lineto
61470.6 55197.2 lineto
stroke
newpath
61114.4 55403.5 moveto
60870.7 55403.5 lineto
61001.9 55253.5 lineto
60945.7 55253.5 lineto
60908.2 55234.7 lineto
60889.4 55216 lineto
60870.7 55178.5 lineto
60870.7 55084.8 lineto
60889.4 55047.3 lineto
60908.2 55028.5 lineto
60945.7 55009.8 lineto
61058.1 55009.8 lineto
61095.6 55028.5 lineto
61114.4 55047.3 lineto
stroke
0 0 0 setrgbcolor
0 0 0 setrgbcolor
0 0 0 setrgbcolor
newpath
57984.8 50264.4 moveto
58378.5 50264.4 lineto
58378.5 50414.4 lineto
58359.7 50451.9 lineto
58341 50470.6 lineto
58303.5 50489.4 lineto
58247.2 50489.4 lineto
58209.7 50470.6 lineto
58191 50451.9 lineto
58172.2 50414.4 lineto
58172.2 50264.4 lineto
stroke
newpath
58247.2 50826.8 moveto
57984.8 50826.8 lineto
stroke
newpath
58397.2 50733.1 moveto
58116 50639.4 lineto
58116 50883.1 lineto
stroke
0 0 0 setrgbcolor
0 0 0 setrgbcolor
0 0 0 setrgbcolor
newpath
55020.6 45709.8 moveto
55020.6 46103.5 lineto
54870.6 46103.5 lineto
54833.1 46084.7 lineto
54814.4 46066 lineto
54795.6 46028.5 lineto
54795.6 45972.2 lineto
54814.4 45934.7 lineto
54833.1 45916 lineto
54870.6 45897.2 lineto
55020.6 45897.2 lineto
stroke
newpath
54439.4 46103.5 moveto
54626.9 46103.5 lineto
54645.6 45916 lineto
54626.9 45934.7 lineto
54589.4 45953.5 lineto
54495.7 45953.5 lineto
54458.2 45934.7 lineto
54439.4 45916 lineto
54420.7 45878.5 lineto
54420.7 45784.8 lineto
54439.4 45747.3 lineto
54458.2 45728.5 lineto
54495.7 45709.8 lineto
54589.4 45709.8 lineto
54626.9 45728.5 lineto
54645.6 45747.3 lineto
stroke
0 0 0 setrgbcolor
0 0 0 setrgbcolor
0 0 0 setrgbcolor
newpath
68420.6 44794 moveto
68420.6 45187.7 lineto
68270.6 45187.7 lineto
68233.1 45169 lineto
68214.4 45150.2 lineto
68195.6 45112.7 lineto
68195.6 45056.5 lineto
68214.4 45019 lineto
68233.1 45000.2 lineto
68270.6 44981.5 lineto
68420.6 44981.5 lineto
stroke
newpath
67858.2 45187.7 moveto
67933.1 45187.7 lineto
67970.6 45169 lineto
67989.4 45150.2 lineto
68026.9 45094 lineto
68045.6 45019 lineto
68045.6 44869 lineto
68026.9 44831.5 lineto
68008.1 44812.8 lineto
67970.6 44794 lineto
67895.7 44794 lineto
67858.2 44812.8 lineto
67839.4 44831.5 lineto
67820.7 44869 lineto
67820.7 44962.8 lineto
67839.4 45000.2 lineto
67858.2 45019 lineto
67895.7 45037.7 lineto
67970.6 45037.7 lineto
68008.1 45019 lineto
68026.9 45000.2 lineto
68045.6 44962.8 lineto
stroke
0 0 0 setrgbcolor
0 0 0 setrgbcolor
0 0 0 setrgbcolor
newpath
63244 47889.4 moveto
63637.7 47889.4 lineto
63637.7 48039.4 lineto
63619 48076.9 lineto
63600.2 48095.6 lineto
63562.7 48114.4 lineto
63506.5 48114.4 lineto
63469 48095.6 lineto
63450.2 48076.9 lineto
63431.5 48039.4 lineto
63431.5 47889.4 lineto
stroke
newpath
63637.7 48245.6 moveto
63637.7 48508.1 lineto
63244 48339.4 lineto
stroke
0 0 0 setrgbcolor
0 0 0 setrgbcolor
0 0 0 setrgbcolor
newpath
66900.2 46342.5 moveto
66919 46305 lineto
66956.5 46267.5 lineto
67012.7 46211.3 lineto
67031.5 46173.8 lineto
67031.5 46136.3 lineto
stroke
newpath
66937.7 46155 moveto
66956.5 46117.5 lineto
66994 46080 lineto
67069 46061.3 lineto
67200.2 46061.3 lineto
67275.2 46080 lineto
67312.7 46117.5 lineto
67331.4 46155 lineto
67331.4 46230 lineto
67312.7 46267.5 lineto
67275.2 46305 lineto
67200.2 46323.8 lineto
67069 46323.8 lineto
66994 46305 lineto
66956.5 46267.5 lineto
66937.7 46230 lineto
66937.7 46155 lineto
stroke
newpath
66937.7 46698.7 moveto
66937.7 46473.7 lineto
stroke
newpath
66937.7 46586.2 moveto
67331.4 46586.2 lineto
67275.2 46548.7 lineto
67237.7 46511.2 lineto
67218.9 46473.7 lineto
stroke
0 0 0 setrgbcolor
0 0 0 setrgbcolor
0 0 0 setrgbcolor
newpath
62600.2 48642.5 moveto
62619 48605 lineto
62656.5 48567.5 lineto
62712.7 48511.3 lineto
62731.5 48473.8 lineto
62731.5 48436.3 lineto
stroke
newpath
62637.7 48455 moveto
62656.5 48417.5 lineto
62694 48380 lineto
62769 48361.3 lineto
62900.2 48361.3 lineto
62975.2 48380 lineto
63012.7 48417.5 lineto
63031.4 48455 lineto
63031.4 48530 lineto
63012.7 48567.5 lineto
62975.2 48605 lineto
62900.2 48623.8 lineto
62769 48623.8 lineto
62694 48605 lineto
62656.5 48567.5 lineto
62637.7 48530 lineto
62637.7 48455 lineto
stroke
newpath
62993.9 48773.7 moveto
63012.7 48792.5 lineto
63031.4 48830 lineto
63031.4 48923.7 lineto
63012.7 48961.2 lineto
62993.9 48980 lineto
62956.4 48998.7 lineto
62918.9 48998.7 lineto
62862.7 48980 lineto
62637.7 48755 lineto
62637.7 48998.7 lineto
stroke
0 0 0 setrgbcolor
0 0 0 setrgbcolor
0 0 0 setrgbcolor
newpath
59378.7 50114.4 moveto
59566.1 49983.1 lineto
stroke
newpath
59378.7 49889.4 moveto
59772.4 49889.4 lineto
59772.4 50039.4 lineto
59753.6 50076.9 lineto
59734.9 50095.6 lineto
59697.4 50114.4 lineto
59641.1 50114.4 lineto
59603.6 50095.6 lineto
59584.9 50076.9 lineto
59566.1 50039.4 lineto
59566.1 49889.4 lineto
stroke
newpath
59378.7 50489.3 moveto
59378.7 50264.4 lineto
stroke
newpath
59378.7 50376.9 moveto
59772.4 50376.9 lineto
59716.1 50339.4 lineto
59678.6 50301.9 lineto
59659.9 50264.4 lineto
stroke
0 0 0 setrgbcolor
0 0 0 setrgbcolor
0 0 0 setrgbcolor
newpath
60965.8 46523 moveto
61191.2 46562.8 lineto
stroke
newpath
61124.9 46364 moveto
61403.3 46642.4 lineto
61297.3 46748.4 lineto
61257.5 46761.7 lineto
61231 46761.7 lineto
61191.2 46748.4 lineto
61151.4 46708.6 lineto
61138.2 46668.9 lineto
61138.2 46642.4 lineto
61151.4 46602.6 lineto
61257.5 46496.5 lineto
stroke
newpath
61111.7 46881 moveto
61111.7 46907.5 lineto
61098.4 46947.3 lineto
61032.1 47013.5 lineto
60992.4 47026.8 lineto
60965.8 47026.8 lineto
60926.1 47013.5 lineto
60899.6 46987 lineto
60873 46934 lineto
60873 46615.8 lineto
60700.7 46788.2 lineto
stroke
0 0 0 setrgbcolor
0 0 0 setrgbcolor
0 0 0 setrgbcolor
newpath
52178.7 50214.4 moveto
52366.1 50083.1 lineto
stroke
newpath
52178.7 49989.4 moveto
52572.4 49989.4 lineto
52572.4 50139.4 lineto
52553.6 50176.9 lineto
52534.9 50195.6 lineto
52497.4 50214.4 lineto
52441.1 50214.4 lineto
52403.6 50195.6 lineto
52384.9 50176.9 lineto
52366.1 50139.4 lineto
52366.1 49989.4 lineto
stroke
newpath
52572.4 50345.6 moveto
52572.4 50589.3 lineto
52422.4 50458.1 lineto
52422.4 50514.3 lineto
52403.6 50551.8 lineto
52384.9 50570.6 lineto
52347.4 50589.3 lineto
52253.7 50589.3 lineto
52216.2 50570.6 lineto
52197.4 50551.8 lineto
52178.7 50514.3 lineto
52178.7 50401.9 lineto
52197.4 50364.4 lineto
52216.2 50345.6 lineto
stroke
0 0 0 setrgbcolor
0 0 0 setrgbcolor
0 0 0 setrgbcolor
newpath
53178.7 50214.4 moveto
53366.1 50083.1 lineto
stroke
newpath
53178.7 49989.4 moveto
53572.4 49989.4 lineto
53572.4 50139.4 lineto
53553.6 50176.9 lineto
53534.9 50195.6 lineto
53497.4 50214.4 lineto
53441.1 50214.4 lineto
53403.6 50195.6 lineto
53384.9 50176.9 lineto
53366.1 50139.4 lineto
53366.1 49989.4 lineto
stroke
newpath
53441.1 50551.8 moveto
53178.7 50551.8 lineto
stroke
newpath
53591.1 50458.1 moveto
53309.9 50364.4 lineto
53309.9 50608.1 lineto
stroke
0 0 0 setrgbcolor
0 0 0 setrgbcolor
0 0 0 setrgbcolor
newpath
65478.7 46314.4 moveto
65666.1 46183.1 lineto
stroke
newpath
65478.7 46089.4 moveto
65872.4 46089.4 lineto
65872.4 46239.4 lineto
65853.6 46276.9 lineto
65834.9 46295.6 lineto
65797.4 46314.4 lineto
65741.1 46314.4 lineto
65703.6 46295.6 lineto
65684.9 46276.9 lineto
65666.1 46239.4 lineto
65666.1 46089.4 lineto
stroke
newpath
65872.4 46670.6 moveto
65872.4 46483.1 lineto
65684.9 46464.4 lineto
65703.6 46483.1 lineto
65722.4 46520.6 lineto
65722.4 46614.3 lineto
65703.6 46651.8 lineto
65684.9 46670.6 lineto
65647.4 46689.3 lineto
65553.7 46689.3 lineto
65516.2 46670.6 lineto
65497.4 46651.8 lineto
65478.7 46614.3 lineto
65478.7 46520.6 lineto
65497.4 46483.1 lineto
65516.2 46464.4 lineto
stroke
0 0 0 setrgbcolor
0 0 0 setrgbcolor
0 0 0 setrgbcolor
newpath
63695.6 46975.1 moveto
63826.9 47162.6 lineto
stroke
newpath
63920.6 46975.1 moveto
63920.6 47368.8 lineto
63770.6 47368.8 lineto
63733.1 47350.1 lineto
63714.4 47331.3 lineto
63695.6 47293.8 lineto
63695.6 47237.6 lineto
63714.4 47200.1 lineto
63733.1 47181.3 lineto
63770.6 47162.6 lineto
63920.6 47162.6 lineto
stroke
newpath
63358.2 47368.8 moveto
63433.1 47368.8 lineto
63470.6 47350.1 lineto
63489.4 47331.3 lineto
63526.9 47275.1 lineto
63545.6 47200.1 lineto
63545.6 47050.1 lineto
63526.9 47012.6 lineto
63508.1 46993.9 lineto
63470.6 46975.1 lineto
63395.7 46975.1 lineto
63358.2 46993.9 lineto
63339.4 47012.6 lineto
63320.7 47050.1 lineto
63320.7 47143.9 lineto
63339.4 47181.3 lineto
63358.2 47200.1 lineto
63395.7 47218.8 lineto
63470.6 47218.8 lineto
63508.1 47200.1 lineto
63526.9 47181.3 lineto
63545.6 47143.9 lineto
stroke
0 0 0 setrgbcolor
0 0 0 setrgbcolor
0 0 0 setrgbcolor
newpath
57730 49588.5 moveto
57730 49269.8 lineto
57711.2 49232.3 lineto
57692.5 49213.6 lineto
57655 49194.8 lineto
57580 49194.8 lineto
57542.5 49213.6 lineto
57523.7 49232.3 lineto
57505 49269.8 lineto
57505 49588.5 lineto
stroke
newpath
57111.3 49194.8 moveto
57336.3 49194.8 lineto
stroke
newpath
57223.8 49194.8 moveto
57223.8 49588.5 lineto
57261.3 49532.3 lineto
57298.8 49494.8 lineto
57336.3 49476 lineto
stroke
0 0 0 setrgbcolor
0 0 0 setrgbcolor
0 0 0 setrgbcolor
newpath
52230 46517.6 moveto
52230 46198.9 lineto
52211.2 46161.4 lineto
52192.5 46142.7 lineto
52155 46123.9 lineto
52080 46123.9 lineto
52042.5 46142.7 lineto
52023.7 46161.4 lineto
52005 46198.9 lineto
52005 46517.6 lineto
stroke
newpath
51855 46517.6 moveto
51611.3 46517.6 lineto
51742.5 46367.7 lineto
51686.3 46367.7 lineto
51648.8 46348.9 lineto
51630 46330.2 lineto
51611.3 46292.7 lineto
51611.3 46198.9 lineto
51630 46161.4 lineto
51648.8 46142.7 lineto
51686.3 46123.9 lineto
51798.8 46123.9 lineto
51836.3 46142.7 lineto
51855 46161.4 lineto
stroke
0 0 0 setrgbcolor
0 0 0 setrgbcolor
0 0 0 setrgbcolor
newpath
68152.9 47218.4 moveto
68546.6 47218.4 lineto
68546.6 47312.1 lineto
68527.9 47368.4 lineto
68490.4 47405.9 lineto
68452.9 47424.6 lineto
68377.9 47443.4 lineto
68321.6 47443.4 lineto
68246.6 47424.6 lineto
68209.1 47405.9 lineto
68171.6 47368.4 lineto
68152.9 47312.1 lineto
68152.9 47218.4 lineto
stroke
newpath
68152.9 47818.3 moveto
68152.9 47593.4 lineto
stroke
newpath
68152.9 47705.9 moveto
68546.6 47705.9 lineto
68490.4 47668.4 lineto
68452.9 47630.9 lineto
68434.1 47593.4 lineto
stroke
0 0 0 setrgbcolor
0 0 0 setrgbcolor
0 0 0 setrgbcolor
newpath
68735.9 49544 moveto
68735.9 49844 lineto
stroke
newpath
68585.9 49694 moveto
68885.9 49694 lineto
stroke
0 0 0 setrgbcolor
0 0 0 setrgbcolor
0 0 0 setrgbcolor
newpath
66299.6 50800.9 moveto
66299.6 51194.6 lineto
66205.9 51194.6 lineto
66149.6 51175.9 lineto
66112.1 51138.4 lineto
66093.4 51100.9 lineto
66074.6 51025.9 lineto
66074.6 50969.6 lineto
66093.4 50894.6 lineto
66112.1 50857.1 lineto
66149.6 50819.6 lineto
66205.9 50800.9 lineto
66299.6 50800.9 lineto
stroke
newpath
65924.6 51157.1 moveto
65905.9 51175.9 lineto
65868.4 51194.6 lineto
65774.7 51194.6 lineto
65737.2 51175.9 lineto
65718.4 51157.1 lineto
65699.7 51119.6 lineto
65699.7 51082.1 lineto
65718.4 51025.9 lineto
65943.4 50800.9 lineto
65699.7 50800.9 lineto
stroke
0 0 0 setrgbcolor
0 0 0 setrgbcolor
0 0 0 setrgbcolor
newpath
68344 50517.9 moveto
68044 50517.9 lineto
stroke
newpath
68194 50367.9 moveto
68194 50667.9 lineto
stroke
0 0 0 setrgbcolor
0 0 0 setrgbcolor
0 0 0 setrgbcolor
newpath
72303 52950.5 moveto
71984.3 52950.5 lineto
71946.8 52969.2 lineto
71928.1 52988 lineto
71909.3 53025.5 lineto
71909.3 53100.5 lineto
71928.1 53138 lineto
71946.8 53156.7 lineto
71984.3 53175.5 lineto
72303 53175.5 lineto
stroke
newpath
72265.5 53344.2 moveto
72284.3 53362.9 lineto
72303 53400.4 lineto
72303 53494.2 lineto
72284.3 53531.7 lineto
72265.5 53550.4 lineto
72228 53569.2 lineto
72190.5 53569.2 lineto
72134.3 53550.4 lineto
71909.3 53325.4 lineto
71909.3 53569.2 lineto
stroke
showpage
grestore
%%EOF
